Province/State,Country,Target/Date,N,low95N,high95N,R,low95R,high95R,D,low95D,high95D,T,low95T,high95T,M,low95M,high95M,C,low95C,high95C,
,Colombia,2020-06-10 00:00:00,32176,,,,,,952,,,,,,,,,,,,
,Slovakia,2020-06-10 00:00:00,1531,,,,,,28,,,,,,,,,,,,
,Austria,2020-06-10 00:00:00,16940,,,,,,670,,,,,,,,,,,,
,India,2020-06-10 00:00:00,262090,,,,,,5549,,,,,,,,,,,,
,Hungary,2020-06-10 00:00:00,3958,,,,,,528,,,,,,,,,,,,
,United Arab Emirates,2020-06-10 00:00:00,38053,,,,,,265,,,,,,,,,,,,
,South Africa,2020-06-10 00:00:00,38489,,,,,,701,,,,,,,,,,,,
,Romania,2020-06-10 00:00:00,19558,,,,,,1276,,,,,,,,,,,,
,Thailand,2020-06-10 00:00:00,3144,,,,,,57,,,,,,,,,,,,
,Chile,2020-06-10 00:00:00,115860,,,,,,1099,,,,,,,,,,,,
,Argentina,2020-06-10 00:00:00,19654,,,,,,551,,,,,,,,,,,,
,Israel,2020-06-10 00:00:00,18176,,,,,,286,,,,,,,,,,,,
,Mexico,2020-06-10 00:00:00,105728,,,,,,10318,,,,,,,,,,,,
,Egypt,2020-06-10 00:00:00,29489,,,,,,986,,,,,,,,,,,,
,Croatia,2020-06-10 00:00:00,2254,,,,,,103,,,,,,,,,,,,
,Bulgaria,2020-06-10 00:00:00,2573,,,,,,141,,,,,,,,,,,,
,Serbia,2020-06-10 00:00:00,11766,,,,,,244,,,,,,,,,,,,
,Singapore,2020-06-10 00:00:00,37272,,,,,,23,,,,,,,,,,,,
,Indonesia,2020-06-10 00:00:00,30048,,,,,,1624,,,,,,,,,,,,
,Saudi Arabia,2020-06-10 00:00:00,93064,,,,,,517,,,,,,,,,,,,
,Japan,2020-06-10 00:00:00,19604,,,,,,901,,,,,,,,,,,,
,Albania,2020-06-10 00:00:00,1184,,,,,,33,,,,,,,,,,,,
,Estonia,2020-06-10 00:00:00,1918,,,,,,68,,,,,,,,,,,,
,Ukraine,2020-06-10 00:00:00,24891,,,,,,715,,,,,,,,,,,,
,Philippines,2020-06-10 00:00:00,20261,,,,,,960,,,,,,,,,,,,
,Slovenia,2020-06-10 00:00:00,1517,,,,,,108,,,,,,,,,,,,
,Italy,2020-06-10 00:00:00,236964,,,,,,33554,,,,,,,,,,,,
,Australia,2020-06-10 00:00:00,7360,,,,,,102,,,,,,,,,,,,
,Malaysia,2020-06-10 00:00:00,8381,,,,,,115,,,,,,,,,,,,
,Morocco,2020-06-10 00:00:00,8307,,,,,,205,,,,,,,,,,,,
,Germany,2020-06-10 00:00:00,188904,,,,,,8579,,,,,,,,,,,,
,Poland,2020-06-10 00:00:00,24386,,,,,,1079,,,,,,,,,,,,
,Luxembourg,2020-06-10 00:00:00,4211,,,,,,110,,,,,,,,,,,,
,New Zealand,2020-06-10 00:00:00,1674,,,,,,22,,,,,,,,,,,,
,Turkey,2020-06-10 00:00:00,173645,,,,,,4562,,,,,,,,,,,,
,Brazil,2020-06-10 00:00:00,606965,,,,,,30134,,,,,,,,,,,,
,Uruguay,2020-06-10 00:00:00,870,,,,,,22,,,,,,,,,,,,
,Canada,2020-06-10 00:00:00,94980,,,,,,7383,,,,,,,,,,,,
