Province/State,Country,Target/Date,N,low95N,high95N,R,low95R,high95R,D,low95D,high95D,T,low95T,high95T,M,low95M,high95M,C,low95C,high95C,
,Italy,2020-06-12 00:00:00,235190,,,,,,33953,,,,,,,,,,,,
,Slovakia,2020-06-12 00:00:00,1529,,,,,,28,,,,,,,,,,,,
,Turkey,2020-06-12 00:00:00,174371,,,,,,4701,,,,,,,,,,,,
,Canada,2020-06-12 00:00:00,97811,,,,,,7907,,,,,,,,,,,,
,Luxembourg,2020-06-12 00:00:00,4040,,,,,,110,,,,,,,,,,,,
,Japan,2020-06-12 00:00:00,17054,,,,,,918,,,,,,,,,,,,
,Romania,2020-06-12 00:00:00,20556,,,,,,1337,,,,,,,,,,,,
,Israel,2020-06-12 00:00:00,18410,,,,,,296,,,,,,,,,,,,
,Croatia,2020-06-12 00:00:00,2247,,,,,,104,,,,,,,,,,,,
,Australia,2020-06-12 00:00:00,7280,,,,,,102,,,,,,,,,,,,
,Philippines,2020-06-12 00:00:00,22748,,,,,,1006,,,,,,,,,,,,
,Bulgaria,2020-06-12 00:00:00,2793,,,,,,162,,,,,,,,,,,,
,Germany,2020-06-12 00:00:00,185904,,,,,,8702,,,,,,,,,,,,
,India,2020-06-12 00:00:00,271588,,,,,,7302,,,,,,,,,,,,
,Uruguay,2020-06-12 00:00:00,853,,,,,,23,,,,,,,,,,,,
,Poland,2020-06-12 00:00:00,26833,,,,,,1167,,,,,,,,,,,,
,Saudi Arabia,2020-06-12 00:00:00,105466,,,,,,729,,,,,,,,,,,,
,Singapore,2020-06-12 00:00:00,38594,,,,,,24,,,,,,,,,,,,
,Thailand,2020-06-12 00:00:00,3114,,,,,,58,,,,,,,,,,,,
,Morocco,2020-06-12 00:00:00,8491,,,,,,208,,,,,,,,,,,,
,Egypt,2020-06-12 00:00:00,36119,,,,,,1253,,,,,,,,,,,,
,Brazil,2020-06-12 00:00:00,728624,,,,,,37131,,,,,,,,,,,,
,Slovenia,2020-06-12 00:00:00,1484,,,,,,109,,,,,,,,,,,,
,Chile,2020-06-12 00:00:00,141462,,,,,,1943,,,,,,,,,,,,
,United Arab Emirates,2020-06-12 00:00:00,39619,,,,,,278,,,,,,,,,,,,
,Estonia,2020-06-12 00:00:00,1937,,,,,,69,,,,,,,,,,,,
,Argentina,2020-06-12 00:00:00,24577,,,,,,682,,,,,,,,,,,,
,Hungary,2020-06-12 00:00:00,4008,,,,,,547,,,,,,,,,,,,
,Ukraine,2020-06-12 00:00:00,28219,,,,,,802,,,,,,,,,,,,
,Indonesia,2020-06-12 00:00:00,32512,,,,,,1865,,,,,,,,,,,,
,South Africa,2020-06-12 00:00:00,52226,,,,,,1052,,,,,,,,,,,,
,Malaysia,2020-06-12 00:00:00,8452,,,,,,117,,,,,,,,,,,,
,Serbia,2020-06-12 00:00:00,11855,,,,,,249,,,,,,,,,,,,
,Albania,2020-06-12 00:00:00,1282,,,,,,33,,,,,,,,,,,,
,New Zealand,2020-06-12 00:00:00,1504,,,,,,22,,,,,,,,,,,,
,Colombia,2020-06-12 00:00:00,41065,,,,,,1310,,,,,,,,,,,,
,Austria,2020-06-12 00:00:00,16935,,,,,,672,,,,,,,,,,,,
,Mexico,2020-06-12 00:00:00,123815,,,,,,14085,,,,,,,,,,,,
