Province/State,Country,Target/Date,N,low95N,high95N,R,low95R,high95R,D,low95D,high95D,T,low95T,high95T,M,low95M,high95M,C,low95C,high95C,
,Italy,2020-06-13 00:00:00,311172,,,,,,31647,,,,,,,,,,,,
,Slovakia,2020-06-13 00:00:00,2042,,,,,,26,,,,,,,,,,,,
,Turkey,2020-06-13 00:00:00,254194,,,,,,3954,,,,,,,,,,,,
,Canada,2020-06-13 00:00:00,127201,,,,,,5404,,,,,,,,,,,,
,Luxembourg,2020-06-13 00:00:00,5784,,,,,,104,,,,,,,,,,,,
,Japan,2020-06-13 00:00:00,52299,,,,,,664,,,,,,,,,,,,
,Romania,2020-06-13 00:00:00,23236,,,,,,1019,,,,,,,,,,,,
,Israel,2020-06-13 00:00:00,28717,,,,,,261,,,,,,,,,,,,
,Croatia,2020-06-13 00:00:00,3037,,,,,,93,,,,,,,,,,,,
,Australia,2020-06-13 00:00:00,12225,,,,,,100,,,,,,,,,,,,
,Philippines,2020-06-13 00:00:00,23062,,,,,,759,,,,,,,,,,,,
,Bulgaria,2020-06-13 00:00:00,2775,,,,,,95,,,,,,,,,,,,
,Germany,2020-06-13 00:00:00,249183,,,,,,7861,,,,,,,,,,,,
,India,2020-06-13 00:00:00,345820,,,,,,2481,,,,,,,,,,,,
,Uruguay,2020-06-13 00:00:00,1132,,,,,,19,,,,,,,,,,,,
,Poland,2020-06-13 00:00:00,24527,,,,,,845,,,,,,,,,,,,
,Saudi Arabia,2020-06-13 00:00:00,79375,,,,,,266,,,,,,,,,,,,
,Singapore,2020-06-13 00:00:00,44144,,,,,,20,,,,,,,,,,,,
,Thailand,2020-06-13 00:00:00,4516,,,,,,57,,,,,,,,,,,,
,Morocco,2020-06-13 00:00:00,12077,,,,,,192,,,,,,,,,,,,
,Egypt,2020-06-13 00:00:00,19317,,,,,,548,,,,,,,,,,,,
,Brazil,2020-06-13 00:00:00,422880,,,,,,12695,,,,,,,,,,,,
,Slovenia,2020-06-13 00:00:00,1949,,,,,,103,,,,,,,,,,,,
,Chile,2020-06-13 00:00:00,55375,,,,,,339,,,,,,,,,,,,
,United Arab Emirates,2020-06-13 00:00:00,33127,,,,,,203,,,,,,,,,,,,
,Estonia,2020-06-13 00:00:00,2491,,,,,,61,,,,,,,,,,,,
,Argentina,2020-06-13 00:00:00,12945,,,,,,330,,,,,,,,,,,,
,Hungary,2020-06-13 00:00:00,4592,,,,,,429,,,,,,,,,,,,
,Ukraine,2020-06-13 00:00:00,24865,,,,,,423,,,,,,,,,,,,
,Indonesia,2020-06-13 00:00:00,30653,,,,,,1024,,,,,,,,,,,,
,South Africa,2020-06-13 00:00:00,21664,,,,,,212,,,,,,,,,,,,
,Malaysia,2020-06-13 00:00:00,11404,,,,,,111,,,,,,,,,,,,
,Serbia,2020-06-13 00:00:00,15005,,,,,,223,,,,,,,,,,,,
,Albania,2020-06-13 00:00:00,1393,,,,,,31,,,,,,,,,,,,
,New Zealand,2020-06-13 00:00:00,2403,,,,,,21,,,,,,,,,,,,
,Colombia,2020-06-13 00:00:00,22952,,,,,,496,,,,,,,,,,,,
,Austria,2020-06-13 00:00:00,21559,,,,,,630,,,,,,,,,,,,
,Mexico,2020-06-13 00:00:00,80371,,,,,,3937,,,,,,,,,,,,
