Province/State,Country,Target/Date,N,low95N,high95N,R,low95R,high95R,D,low95D,high95D,T,low95T,high95T,M,low95M,high95M,C,low95C,high95C,
,Italy,2020-07-06 00:00:00,241057,,,,,,33716,,,,,,,,,,,,
,Slovakia,2020-07-06 00:00:00,1562,,,,,,28,,,,,,,,,,,,
,Turkey,2020-07-06 00:00:00,189946,,,,,,4617,,,,,,,,,,,,
,Canada,2020-07-06 00:00:00,101813,,,,,,7695,,,,,,,,,,,,
,Luxembourg,2020-07-06 00:00:00,5910,,,,,,110,,,,,,,,,,,,
,Japan,2020-07-06 00:00:00,46206,,,,,,918,,,,,,,,,,,,
,Romania,2020-07-06 00:00:00,20452,,,,,,1301,,,,,,,,,,,,
,Israel,2020-07-06 00:00:00,20852,,,,,,290,,,,,,,,,,,,
,Croatia,2020-07-06 00:00:00,2350,,,,,,103,,,,,,,,,,,,
,Australia,2020-07-06 00:00:00,8054,,,,,,102,,,,,,,,,,,,
,Philippines,2020-07-06 00:00:00,28806,,,,,,977,,,,,,,,,,,,
,Bulgaria,2020-07-06 00:00:00,2797,,,,,,149,,,,,,,,,,,,
,Germany,2020-07-06 00:00:00,205295,,,,,,8627,,,,,,,,,,,,
,India,2020-07-06 00:00:00,788817,,,,,,6351,,,,,,,,,,,,
,Uruguay,2020-07-06 00:00:00,966,,,,,,23,,,,,,,,,,,,
,Poland,2020-07-06 00:00:00,26052,,,,,,1115,,,,,,,,,,,,
,Saudi Arabia,2020-07-06 00:00:00,120126,,,,,,596,,,,,,,,,,,,
,Singapore,2020-07-06 00:00:00,40223,,,,,,24,,,,,,,,,,,,
,Thailand,2020-07-06 00:00:00,3285,,,,,,57,,,,,,,,,,,,
,Morocco,2020-07-06 00:00:00,8978,,,,,,206,,,,,,,,,,,,
,Egypt,2020-07-06 00:00:00,50257,,,,,,1106,,,,,,,,,,,,
,Brazil,2020-07-06 00:00:00,1083324,,,,,,33671,,,,,,,,,,,,
,Slovenia,2020-07-06 00:00:00,2426,,,,,,109,,,,,,,,,,,,
,Chile,2020-07-06 00:00:00,159867,,,,,,1328,,,,,,,,,,,,
,United Arab Emirates,2020-07-06 00:00:00,46963,,,,,,271,,,,,,,,,,,,
,Estonia,2020-07-06 00:00:00,2492,,,,,,68,,,,,,,,,,,,
,Argentina,2020-07-06 00:00:00,28305,,,,,,604,,,,,,,,,,,,
,Hungary,2020-07-06 00:00:00,4076,,,,,,536,,,,,,,,,,,,
,Ukraine,2020-07-06 00:00:00,26930,,,,,,751,,,,,,,,,,,,
,Indonesia,2020-07-06 00:00:00,45319,,,,,,1716,,,,,,,,,,,,
,South Africa,2020-07-06 00:00:00,67239,,,,,,827,,,,,,,,,,,,
,Malaysia,2020-07-06 00:00:00,10092,,,,,,115,,,,,,,,,,,,
,Serbia,2020-07-06 00:00:00,15115,,,,,,246,,,,,,,,,,,,
,Albania,2020-07-06 00:00:00,1287,,,,,,33,,,,,,,,,,,,
,New Zealand,2020-07-06 00:00:00,3993,,,,,,22,,,,,,,,,,,,
,Colombia,2020-07-06 00:00:00,49809,,,,,,1091,,,,,,,,,,,,
,Austria,2020-07-06 00:00:00,18178,,,,,,670,,,,,,,,,,,,
,Mexico,2020-07-06 00:00:00,174908,,,,,,12005,,,,,,,,,,,,
