Province/State,Country,Target/Date,N,low95N,high95N,R,low95R,high95R,D,low95D,high95D,T,low95T,high95T,M,low95M,high95M,C,low95C,high95C,
,Italy,2020-06-15 00:00:00,234698,,,,,,33868,,,,,,,,,,,,
,Slovakia,2020-06-15 00:00:00,1527,,,,,,28,,,,,,,,,,,,
,Turkey,2020-06-15 00:00:00,171577,,,,,,4667,,,,,,,,,,,,
,Canada,2020-06-15 00:00:00,96264,,,,,,7805,,,,,,,,,,,,
,Luxembourg,2020-06-15 00:00:00,4034,,,,,,110,,,,,,,,,,,,
,Japan,2020-06-15 00:00:00,17004,,,,,,915,,,,,,,,,,,,
,Romania,2020-06-15 00:00:00,20185,,,,,,1320,,,,,,,,,,,,
,Israel,2020-06-15 00:00:00,18141,,,,,,294,,,,,,,,,,,,
,Croatia,2020-06-15 00:00:00,2248,,,,,,103,,,,,,,,,,,,
,Australia,2020-06-15 00:00:00,7258,,,,,,102,,,,,,,,,,,,
,Philippines,2020-06-15 00:00:00,21872,,,,,,993,,,,,,,,,,,,
,Bulgaria,2020-06-15 00:00:00,2671,,,,,,156,,,,,,,,,,,,
,Germany,2020-06-15 00:00:00,185233,,,,,,8670,,,,,,,,,,,,
,India,2020-06-15 00:00:00,275560,,,,,,6822,,,,,,,,,,,,
,Uruguay,2020-06-15 00:00:00,838,,,,,,23,,,,,,,,,,,,
,Poland,2020-06-15 00:00:00,25822,,,,,,1142,,,,,,,,,,,,
,Saudi Arabia,2020-06-15 00:00:00,98525,,,,,,661,,,,,,,,,,,,
,Singapore,2020-06-15 00:00:00,37649,,,,,,24,,,,,,,,,,,,
,Thailand,2020-06-15 00:00:00,3105,,,,,,58,,,,,,,,,,,,
,Morocco,2020-06-15 00:00:00,8237,,,,,,208,,,,,,,,,,,,
,Egypt,2020-06-15 00:00:00,34598,,,,,,1182,,,,,,,,,,,,
,Brazil,2020-06-15 00:00:00,687212,,,,,,35324,,,,,,,,,,,,
,Slovenia,2020-06-15 00:00:00,1481,,,,,,109,,,,,,,,,,,,
,Chile,2020-06-15 00:00:00,131743,,,,,,1593,,,,,,,,,,,,
,United Arab Emirates,2020-06-15 00:00:00,38222,,,,,,275,,,,,,,,,,,,
,Estonia,2020-06-15 00:00:00,1915,,,,,,69,,,,,,,,,,,,
,Argentina,2020-06-15 00:00:00,23053,,,,,,640,,,,,,,,,,,,
,Hungary,2020-06-15 00:00:00,3979,,,,,,543,,,,,,,,,,,,
,Ukraine,2020-06-15 00:00:00,26848,,,,,,776,,,,,,,,,,,,
,Indonesia,2020-06-15 00:00:00,31286,,,,,,1790,,,,,,,,,,,,
,South Africa,2020-06-15 00:00:00,49480,,,,,,931,,,,,,,,,,,,
,Malaysia,2020-06-15 00:00:00,8375,,,,,,116,,,,,,,,,,,,
,Serbia,2020-06-15 00:00:00,11709,,,,,,247,,,,,,,,,,,,
,Albania,2020-06-15 00:00:00,1222,,,,,,33,,,,,,,,,,,,
,New Zealand,2020-06-15 00:00:00,1513,,,,,,22,,,,,,,,,,,,
,Colombia,2020-06-15 00:00:00,39100,,,,,,1203,,,,,,,,,,,,
,Austria,2020-06-15 00:00:00,16873,,,,,,671,,,,,,,,,,,,
,Mexico,2020-06-15 00:00:00,117785,,,,,,13158,,,,,,,,,,,,
