Province/State,Country,Target/Date,N,low95N,high95N,R,low95R,high95R,D,low95D,high95D,T,low95T,high95T,M,low95M,high95M,C,low95C,high95C,
,Thailand,2020-05-25 00:00:00,3057,,,,,,56,,,,,,,,,,,,
,Turkey,2020-05-25 00:00:00,155782,,,,,,4237,,,,,,,,,,,,
,Mexico,2020-05-25 00:00:00,60936,,,,,,6296,,,,,,,,,,,,
,Philippines,2020-05-25 00:00:00,13682,,,,,,846,,,,,,,,,,,,
,Hungary,2020-05-25 00:00:00,3648,,,,,,471,,,,,,,,,,,,
,Egypt,2020-05-25 00:00:00,15376,,,,,,687,,,,,,,,,,,,
,India,2020-05-25 00:00:00,121564,,,,,,3511,,,,,,,,,,,,
,Israel,2020-05-25 00:00:00,16991,,,,,,278,,,,,,,,,,,,
,Austria,2020-05-25 00:00:00,16479,,,,,,633,,,,,,,,,,,,
,Slovakia,2020-05-25 00:00:00,1507,,,,,,28,,,,,,,,,,,,
,Chile,2020-05-25 00:00:00,57798,,,,,,570,,,,,,,,,,,,
,Uruguay,2020-05-25 00:00:00,753,,,,,,20,,,,,,,,,,,,
,Argentina,2020-05-25 00:00:00,10074,,,,,,412,,,,,,,,,,,,
,Poland,2020-05-25 00:00:00,20171,,,,,,965,,,,,,,,,,,,
,Canada,2020-05-25 00:00:00,83841,,,,,,6207,,,,,,,,,,,,
,Malaysia,2020-05-25 00:00:00,7198,,,,,,114,,,,,,,,,,,,
,Australia,2020-05-25 00:00:00,7187,,,,,,100,,,,,,,,,,,,
,Albania,2020-05-25 00:00:00,979,,,,,,31,,,,,,,,,,,,
,Romania,2020-05-25 00:00:00,17592,,,,,,1150,,,,,,,,,,,,
,Singapore,2020-05-25 00:00:00,31259,,,,,,22,,,,,,,,,,,,
,Colombia,2020-05-25 00:00:00,18763,,,,,,645,,,,,,,,,,,,
,United Arab Emirates,2020-05-25 00:00:00,27201,,,,,,234,,,,,,,,,,,,
,Italy,2020-05-25 00:00:00,228808,,,,,,32401,,,,,,,,,,,,
,Brazil,2020-05-25 00:00:00,316247,,,,,,19476,,,,,,,,,,,,
,Serbia,2020-05-25 00:00:00,10952,,,,,,235,,,,,,,,,,,,
,Ukraine,2020-05-25 00:00:00,19812,,,,,,569,,,,,,,,,,,,
,Luxembourg,2020-05-25 00:00:00,3997,,,,,,108,,,,,,,,,,,,
,South Africa,2020-05-25 00:00:00,19634,,,,,,351,,,,,,,,,,,,
,Croatia,2020-05-25 00:00:00,2246,,,,,,97,,,,,,,,,,,,
,Bulgaria,2020-05-25 00:00:00,2336,,,,,,118,,,,,,,,,,,,
,Slovenia,2020-05-25 00:00:00,1475,,,,,,105,,,,,,,,,,,,
,Germany,2020-05-25 00:00:00,179657,,,,,,8157,,,,,,,,,,,,
,Japan,2020-05-25 00:00:00,16546,,,,,,778,,,,,,,,,,,,
,Estonia,2020-05-25 00:00:00,1809,,,,,,64,,,,,,,,,,,,
,Indonesia,2020-05-25 00:00:00,20433,,,,,,1268,,,,,,,,,,,,
,Morocco,2020-05-25 00:00:00,7313,,,,,,195,,,,,,,,,,,,
,Saudi Arabia,2020-05-25 00:00:00,66184,,,,,,347,,,,,,,,,,,,
,New Zealand,2020-05-25 00:00:00,1513,,,,,,21,,,,,,,,,,,,
