Province/State,Country,Target/Date,N,low95N,high95N,R,low95R,high95R,D,low95D,high95D,T,low95T,high95T,M,low95M,high95M,C,low95C,high95C,
,Singapore,2020-06-09 00:00:00,41077,,,,,,23,,,,,,,,,,,,
,Serbia,2020-06-09 00:00:00,11963,,,,,,243,,,,,,,,,,,,
,Israel,2020-06-09 00:00:00,19257,,,,,,285,,,,,,,,,,,,
,Argentina,2020-06-09 00:00:00,18994,,,,,,537,,,,,,,,,,,,
,South Africa,2020-06-09 00:00:00,36113,,,,,,664,,,,,,,,,,,,
,Turkey,2020-06-09 00:00:00,180743,,,,,,4537,,,,,,,,,,,,
,Germany,2020-06-09 00:00:00,195001,,,,,,8543,,,,,,,,,,,,
,Mexico,2020-06-09 00:00:00,102303,,,,,,9858,,,,,,,,,,,,
,Croatia,2020-06-09 00:00:00,2349,,,,,,103,,,,,,,,,,,,
,Poland,2020-06-09 00:00:00,25157,,,,,,1065,,,,,,,,,,,,
,India,2020-06-09 00:00:00,221613,,,,,,5324,,,,,,,,,,,,
,United Arab Emirates,2020-06-09 00:00:00,38338,,,,,,263,,,,,,,,,,,,
,Malaysia,2020-06-09 00:00:00,8658,,,,,,115,,,,,,,,,,,,
,Estonia,2020-06-09 00:00:00,1979,,,,,,67,,,,,,,,,,,,
,Colombia,2020-06-09 00:00:00,30939,,,,,,914,,,,,,,,,,,,
,Romania,2020-06-09 00:00:00,20190,,,,,,1264,,,,,,,,,,,,
,Indonesia,2020-06-09 00:00:00,29208,,,,,,1590,,,,,,,,,,,,
,Philippines,2020-06-09 00:00:00,19597,,,,,,953,,,,,,,,,,,,
,Australia,2020-06-09 00:00:00,7880,,,,,,102,,,,,,,,,,,,
,Morocco,2020-06-09 00:00:00,8632,,,,,,204,,,,,,,,,,,,
,Egypt,2020-06-09 00:00:00,27271,,,,,,946,,,,,,,,,,,,
,Thailand,2020-06-09 00:00:00,3264,,,,,,57,,,,,,,,,,,,
,Ukraine,2020-06-09 00:00:00,25448,,,,,,702,,,,,,,,,,,,
,Albania,2020-06-09 00:00:00,1217,,,,,,33,,,,,,,,,,,,
,Luxembourg,2020-06-09 00:00:00,4354,,,,,,110,,,,,,,,,,,,
,Japan,2020-06-09 00:00:00,19558,,,,,,895,,,,,,,,,,,,
,Slovenia,2020-06-09 00:00:00,1561,,,,,,108,,,,,,,,,,,,
,Uruguay,2020-06-09 00:00:00,903,,,,,,22,,,,,,,,,,,,
,Italy,2020-06-09 00:00:00,245775,,,,,,33410,,,,,,,,,,,,
,Chile,2020-06-09 00:00:00,110750,,,,,,1032,,,,,,,,,,,,
,Hungary,2020-06-09 00:00:00,4119,,,,,,523,,,,,,,,,,,,
,Saudi Arabia,2020-06-09 00:00:00,95079,,,,,,493,,,,,,,,,,,,
,Slovakia,2020-06-09 00:00:00,1601,,,,,,28,,,,,,,,,,,,
,Brazil,2020-06-09 00:00:00,580102,,,,,,29086,,,,,,,,,,,,
,Canada,2020-06-09 00:00:00,100751,,,,,,7269,,,,,,,,,,,,
,New Zealand,2020-06-09 00:00:00,1701,,,,,,22,,,,,,,,,,,,
,Austria,2020-06-09 00:00:00,17508,,,,,,669,,,,,,,,,,,,
,Bulgaria,2020-06-09 00:00:00,2657,,,,,,139,,,,,,,,,,,,
