Province/State,Country,Target/Date,N,low95N,high95N,R,low95R,high95R,D,low95D,high95D,T,low95T,high95T,M,low95M,high95M,C,low95C,high95C,
,Singapore,2020-06-08 00:00:00,37393,,,,,,23,,,,,,,,,,,,
,Serbia,2020-06-08 00:00:00,11499,,,,,,242,,,,,,,,,,,,
,Israel,2020-06-08 00:00:00,17949,,,,,,284,,,,,,,,,,,,
,Argentina,2020-06-08 00:00:00,17255,,,,,,525,,,,,,,,,,,,
,South Africa,2020-06-08 00:00:00,33164,,,,,,629,,,,,,,,,,,,
,Turkey,2020-06-08 00:00:00,171005,,,,,,4506,,,,,,,,,,,,
,Germany,2020-06-08 00:00:00,185280,,,,,,8513,,,,,,,,,,,,
,Mexico,2020-06-08 00:00:00,94317,,,,,,9502,,,,,,,,,,,,
,Croatia,2020-06-08 00:00:00,2258,,,,,,102,,,,,,,,,,,,
,Poland,2020-06-08 00:00:00,23700,,,,,,1054,,,,,,,,,,,,
,India,2020-06-08 00:00:00,199244,,,,,,5092,,,,,,,,,,,,
,United Arab Emirates,2020-06-08 00:00:00,35687,,,,,,261,,,,,,,,,,,,
,Malaysia,2020-06-08 00:00:00,8200,,,,,,115,,,,,,,,,,,,
,Estonia,2020-06-08 00:00:00,1885,,,,,,67,,,,,,,,,,,,
,Colombia,2020-06-08 00:00:00,28265,,,,,,877,,,,,,,,,,,,
,Romania,2020-06-08 00:00:00,19251,,,,,,1254,,,,,,,,,,,,
,Indonesia,2020-06-08 00:00:00,27349,,,,,,1556,,,,,,,,,,,,
,Philippines,2020-06-08 00:00:00,18111,,,,,,941,,,,,,,,,,,,
,Australia,2020-06-08 00:00:00,7595,,,,,,103,,,,,,,,,,,,
,Morocco,2020-06-08 00:00:00,8183,,,,,,203,,,,,,,,,,,,
,Egypt,2020-06-08 00:00:00,25131,,,,,,905,,,,,,,,,,,,
,Thailand,2020-06-08 00:00:00,3131,,,,,,57,,,,,,,,,,,,
,Ukraine,2020-06-08 00:00:00,23543,,,,,,690,,,,,,,,,,,,
,Albania,2020-06-08 00:00:00,1143,,,,,,33,,,,,,,,,,,,
,Luxembourg,2020-06-08 00:00:00,4133,,,,,,110,,,,,,,,,,,,
,Japan,2020-06-08 00:00:00,17293,,,,,,887,,,,,,,,,,,,
,Slovenia,2020-06-08 00:00:00,1485,,,,,,108,,,,,,,,,,,,
,Uruguay,2020-06-08 00:00:00,854,,,,,,22,,,,,,,,,,,,
,Italy,2020-06-08 00:00:00,234747,,,,,,33320,,,,,,,,,,,,
,Chile,2020-06-08 00:00:00,102524,,,,,,974,,,,,,,,,,,,
,Hungary,2020-06-08 00:00:00,3911,,,,,,518,,,,,,,,,,,,
,Saudi Arabia,2020-06-08 00:00:00,88520,,,,,,472,,,,,,,,,,,,
,Slovakia,2020-06-08 00:00:00,1538,,,,,,28,,,,,,,,,,,,
,Brazil,2020-06-08 00:00:00,531347,,,,,,28128,,,,,,,,,,,,
,Canada,2020-06-08 00:00:00,97086,,,,,,7164,,,,,,,,,,,,
,New Zealand,2020-06-08 00:00:00,1571,,,,,,22,,,,,,,,,,,,
,Austria,2020-06-08 00:00:00,16842,,,,,,665,,,,,,,,,,,,
,Bulgaria,2020-06-08 00:00:00,2531,,,,,,137,,,,,,,,,,,,
