Province/State,Country,Target/Date,N,low95N,high95N,R,low95R,high95R,D,low95D,high95D,T,low95T,high95T,M,low95M,high95M,C,low95C,high95C,
,Serbia,2020-06-07 00:00:00,11527,,,,,,241,,,,,,,,,,,,
,United Arab Emirates,2020-06-07 00:00:00,35106,,,,,,259,,,,,,,,,,,,
,Germany,2020-06-07 00:00:00,182548,,,,,,8507,,,,,,,,,,,,
,Singapore,2020-06-07 00:00:00,36906,,,,,,23,,,,,,,,,,,,
,Canada,2020-06-07 00:00:00,91019,,,,,,7068,,,,,,,,,,,,
,Malaysia,2020-06-07 00:00:00,8225,,,,,,115,,,,,,,,,,,,
,Slovenia,2020-06-07 00:00:00,1502,,,,,,108,,,,,,,,,,,,
,Austria,2020-06-07 00:00:00,16758,,,,,,661,,,,,,,,,,,,
,Brazil,2020-06-07 00:00:00,509066,,,,,,27306,,,,,,,,,,,,
,Croatia,2020-06-07 00:00:00,2254,,,,,,102,,,,,,,,,,,,
,Mexico,2020-06-07 00:00:00,94442,,,,,,9185,,,,,,,,,,,,
,Philippines,2020-06-07 00:00:00,18443,,,,,,927,,,,,,,,,,,,
,Chile,2020-06-07 00:00:00,98920,,,,,,926,,,,,,,,,,,,
,Australia,2020-06-07 00:00:00,7204,,,,,,103,,,,,,,,,,,,
,Colombia,2020-06-07 00:00:00,27899,,,,,,848,,,,,,,,,,,,
,Egypt,2020-06-07 00:00:00,26096,,,,,,869,,,,,,,,,,,,
,South Africa,2020-06-07 00:00:00,33430,,,,,,599,,,,,,,,,,,,
,Albania,2020-06-07 00:00:00,1126,,,,,,33,,,,,,,,,,,,
,Japan,2020-06-07 00:00:00,16993,,,,,,882,,,,,,,,,,,,
,New Zealand,2020-06-07 00:00:00,1604,,,,,,21,,,,,,,,,,,,
,Ukraine,2020-06-07 00:00:00,22738,,,,,,677,,,,,,,,,,,,
,Bulgaria,2020-06-07 00:00:00,2484,,,,,,135,,,,,,,,,,,,
,India,2020-06-07 00:00:00,212046,,,,,,4890,,,,,,,,,,,,
,Luxembourg,2020-06-07 00:00:00,4027,,,,,,110,,,,,,,,,,,,
,Saudi Arabia,2020-06-07 00:00:00,86728,,,,,,454,,,,,,,,,,,,
,Argentina,2020-06-07 00:00:00,16811,,,,,,515,,,,,,,,,,,,
,Hungary,2020-06-07 00:00:00,3839,,,,,,514,,,,,,,,,,,,
,Israel,2020-06-07 00:00:00,17782,,,,,,283,,,,,,,,,,,,
,Thailand,2020-06-07 00:00:00,3099,,,,,,57,,,,,,,,,,,,
,Poland,2020-06-07 00:00:00,23212,,,,,,1047,,,,,,,,,,,,
,Estonia,2020-06-07 00:00:00,1871,,,,,,66,,,,,,,,,,,,
,Indonesia,2020-06-07 00:00:00,28007,,,,,,1519,,,,,,,,,,,,
,Romania,2020-06-07 00:00:00,19035,,,,,,1244,,,,,,,,,,,,
,Slovakia,2020-06-07 00:00:00,1528,,,,,,28,,,,,,,,,,,,
,Morocco,2020-06-07 00:00:00,8221,,,,,,203,,,,,,,,,,,,
,Italy,2020-06-07 00:00:00,232130,,,,,,33311,,,,,,,,,,,,
,Turkey,2020-06-07 00:00:00,170112,,,,,,4481,,,,,,,,,,,,
,Uruguay,2020-06-07 00:00:00,829,,,,,,22,,,,,,,,,,,,
