Province/State,Country,Target/Date,N,low95N,high95N,R,low95R,high95R,D,low95D,high95D,T,low95T,high95T,M,low95M,high95M,C,low95C,high95C,
,Serbia,2020-05-27 00:00:00,10695,,,,,,231,,,,,,,,,,,,
,United Arab Emirates,2020-05-27 00:00:00,25465,,,,,,221,,,,,,,,,,,,
,Germany,2020-05-27 00:00:00,179117,,,,,,8031,,,,,,,,,,,,
,Singapore,2020-05-27 00:00:00,29167,,,,,,21,,,,,,,,,,,,
,Canada,2020-05-27 00:00:00,82701,,,,,,5952,,,,,,,,,,,,
,Malaysia,2020-05-27 00:00:00,7101,,,,,,113,,,,,,,,,,,,
,Slovenia,2020-05-27 00:00:00,1488,,,,,,104,,,,,,,,,,,,
,Austria,2020-05-27 00:00:00,16543,,,,,,631,,,,,,,,,,,,
,Brazil,2020-05-27 00:00:00,292827,,,,,,16827,,,,,,,,,,,,
,Croatia,2020-05-27 00:00:00,2238,,,,,,95,,,,,,,,,,,,
,Mexico,2020-05-27 00:00:00,56766,,,,,,5362,,,,,,,,,,,,
,Philippines,2020-05-27 00:00:00,13242,,,,,,827,,,,,,,,,,,,
,Chile,2020-05-27 00:00:00,51508,,,,,,467,,,,,,,,,,,,
,Australia,2020-05-27 00:00:00,7202,,,,,,99,,,,,,,,,,,,
,Colombia,2020-05-27 00:00:00,17375,,,,,,587,,,,,,,,,,,,
,Egypt,2020-05-27 00:00:00,13882,,,,,,637,,,,,,,,,,,,
,South Africa,2020-05-27 00:00:00,17907,,,,,,285,,,,,,,,,,,,
,Albania,2020-05-27 00:00:00,944,,,,,,31,,,,,,,,,,,,
,Japan,2020-05-27 00:00:00,17883,,,,,,747,,,,,,,,,,,,
,New Zealand,2020-05-27 00:00:00,1560,,,,,,21,,,,,,,,,,,,
,Ukraine,2020-05-27 00:00:00,18483,,,,,,523,,,,,,,,,,,,
,Bulgaria,2020-05-27 00:00:00,2288,,,,,,109,,,,,,,,,,,,
,India,2020-05-27 00:00:00,127566,,,,,,3109,,,,,,,,,,,,
,Luxembourg,2020-05-27 00:00:00,4057,,,,,,106,,,,,,,,,,,,
,Saudi Arabia,2020-05-27 00:00:00,60594,,,,,,316,,,,,,,,,,,,
,Argentina,2020-05-27 00:00:00,8933,,,,,,379,,,,,,,,,,,,
,Hungary,2020-05-27 00:00:00,3583,,,,,,458,,,,,,,,,,,,
,Israel,2020-05-27 00:00:00,17084,,,,,,273,,,,,,,,,,,,
,Thailand,2020-05-27 00:00:00,3079,,,,,,56,,,,,,,,,,,,
,Poland,2020-05-27 00:00:00,19036,,,,,,934,,,,,,,,,,,,
,Estonia,2020-05-27 00:00:00,1791,,,,,,63,,,,,,,,,,,,
,Indonesia,2020-05-27 00:00:00,19739,,,,,,1164,,,,,,,,,,,,
,Romania,2020-05-27 00:00:00,17318,,,,,,1116,,,,,,,,,,,,
,Slovakia,2020-05-27 00:00:00,1497,,,,,,27,,,,,,,,,,,,
,Morocco,2020-05-27 00:00:00,7098,,,,,,192,,,,,,,,,,,,
,Italy,2020-05-27 00:00:00,232213,,,,,,32091,,,,,,,,,,,,
,Turkey,2020-05-27 00:00:00,153425,,,,,,4155,,,,,,,,,,,,
,Uruguay,2020-05-27 00:00:00,770,,,,,,19,,,,,,,,,,,,
