Province/State,Country,Target/Date,N,low95N,high95N,R,low95R,high95R,D,low95D,high95D,T,low95T,high95T,M,low95M,high95M,C,low95C,high95C,
,Serbia,2020-05-07 00:00:00,9210,,,,,,164,,,,,,,,,,,,
,United Arab Emirates,2020-05-07 00:00:00,12436,,,,,,86,,,,,,,,,,,,
,Germany,2020-05-07 00:00:00,173080,,,,,,6237,,,,,,,,,,,,
,Singapore,2020-05-07 00:00:00,16019,,,,,,13,,,,,,,,,,,,
,Canada,2020-05-07 00:00:00,57738,,,,,,2939,,,,,,,,,,,,
,Malaysia,2020-05-07 00:00:00,6413,,,,,,99,,,,,,,,,,,,
,Slovenia,2020-05-07 00:00:00,1519,,,,,,85,,,,,,,,,,,,
,Austria,2020-05-07 00:00:00,16526,,,,,,560,,,,,,,,,,,,
,Brazil,2020-05-07 00:00:00,85820,,,,,,4953,,,,,,,,,,,,
,Croatia,2020-05-07 00:00:00,2206,,,,,,61,,,,,,,,,,,,
,Mexico,2020-05-07 00:00:00,19045,,,,,,1547,,,,,,,,,,,,
,Philippines,2020-05-07 00:00:00,8750,,,,,,527,,,,,,,,,,,,
,Chile,2020-05-07 00:00:00,15921,,,,,,203,,,,,,,,,,,,
,Australia,2020-05-07 00:00:00,7453,,,,,,86,,,,,,,,,,,,
,Colombia,2020-05-07 00:00:00,6505,,,,,,262,,,,,,,,,,,,
,Egypt,2020-05-07 00:00:00,5587,,,,,,349,,,,,,,,,,,,
,South Africa,2020-05-07 00:00:00,5593,,,,,,93,,,,,,,,,,,,
,Albania,2020-05-07 00:00:00,815,,,,,,29,,,,,,,,,,,,
,Japan,2020-05-07 00:00:00,16753,,,,,,393,,,,,,,,,,,,
,New Zealand,2020-05-07 00:00:00,1589,,,,,,18,,,,,,,,,,,,
,Ukraine,2020-05-07 00:00:00,10321,,,,,,230,,,,,,,,,,,,
,Bulgaria,2020-05-07 00:00:00,1550,,,,,,59,,,,,,,,,,,,
,India,2020-05-07 00:00:00,37560,,,,,,985,,,,,,,,,,,,
,Luxembourg,2020-05-07 00:00:00,4067,,,,,,88,,,,,,,,,,,,
,Saudi Arabia,2020-05-07 00:00:00,22426,,,,,,148,,,,,,,,,,,,
,Argentina,2020-05-07 00:00:00,4538,,,,,,202,,,,,,,,,,,,
,Hungary,2020-05-07 00:00:00,2888,,,,,,286,,,,,,,,,,,,
,Israel,2020-05-07 00:00:00,17103,,,,,,209,,,,,,,,,,,,
,Thailand,2020-05-07 00:00:00,3206,,,,,,52,,,,,,,,,,,,
,Poland,2020-05-07 00:00:00,13306,,,,,,581,,,,,,,,,,,,
,Estonia,2020-05-07 00:00:00,1780,,,,,,49,,,,,,,,,,,,
,Indonesia,2020-05-07 00:00:00,10713,,,,,,764,,,,,,,,,,,,
,Romania,2020-05-07 00:00:00,12710,,,,,,656,,,,,,,,,,,,
,Slovakia,2020-05-07 00:00:00,1516,,,,,,19,,,,,,,,,,,,
,Morocco,2020-05-07 00:00:00,4668,,,,,,164,,,,,,,,,,,,
,Italy,2020-05-07 00:00:00,219089,,,,,,27182,,,,,,,,,,,,
,Turkey,2020-05-07 00:00:00,126121,,,,,,2950,,,,,,,,,,,,
,Uruguay,2020-05-07 00:00:00,691,,,,,,15,,,,,,,,,,,,
