Province/State,Country,Target/Date,N,low95N,high95N,R,low95R,high95R,D,low95D,high95D,T,low95T,high95T,M,low95M,high95M,C,low95C,high95C,
,Serbia,2020-06-03 00:00:00,11213,,,,,,238,,,,,,,,,,,,
,United Arab Emirates,2020-06-03 00:00:00,30771,,,,,,247,,,,,,,,,,,,
,Germany,2020-06-03 00:00:00,181596,,,,,,8318,,,,,,,,,,,,
,Singapore,2020-06-03 00:00:00,34443,,,,,,23,,,,,,,,,,,,
,Canada,2020-06-03 00:00:00,88320,,,,,,6625,,,,,,,,,,,,
,Malaysia,2020-06-03 00:00:00,7485,,,,,,115,,,,,,,,,,,,
,Slovenia,2020-06-03 00:00:00,1497,,,,,,107,,,,,,,,,,,,
,Austria,2020-06-03 00:00:00,16599,,,,,,641,,,,,,,,,,,,
,Brazil,2020-06-03 00:00:00,408204,,,,,,23274,,,,,,,,,,,,
,Croatia,2020-06-03 00:00:00,2246,,,,,,99,,,,,,,,,,,,
,Mexico,2020-06-03 00:00:00,75827,,,,,,7661,,,,,,,,,,,,
,Philippines,2020-06-03 00:00:00,14883,,,,,,875,,,,,,,,,,,,
,Chile,2020-06-03 00:00:00,77633,,,,,,738,,,,,,,,,,,,
,Australia,2020-06-03 00:00:00,7195,,,,,,102,,,,,,,,,,,,
,Colombia,2020-06-03 00:00:00,22630,,,,,,740,,,,,,,,,,,,
,Egypt,2020-06-03 00:00:00,19652,,,,,,767,,,,,,,,,,,,
,South Africa,2020-06-03 00:00:00,25235,,,,,,465,,,,,,,,,,,,
,Albania,2020-06-03 00:00:00,1009,,,,,,32,,,,,,,,,,,,
,Japan,2020-06-03 00:00:00,17178,,,,,,827,,,,,,,,,,,,
,New Zealand,2020-06-03 00:00:00,1600,,,,,,21,,,,,,,,,,,,
,Ukraine,2020-06-03 00:00:00,21098,,,,,,622,,,,,,,,,,,,
,Bulgaria,2020-06-03 00:00:00,2442,,,,,,129,,,,,,,,,,,,
,India,2020-06-03 00:00:00,171027,,,,,,4117,,,,,,,,,,,,
,Luxembourg,2020-06-03 00:00:00,4031,,,,,,109,,,,,,,,,,,,
,Saudi Arabia,2020-06-03 00:00:00,75410,,,,,,394,,,,,,,,,,,,
,Argentina,2020-06-03 00:00:00,12973,,,,,,463,,,,,,,,,,,,
,Hungary,2020-06-03 00:00:00,3759,,,,,,490,,,,,,,,,,,,
,Israel,2020-06-03 00:00:00,16879,,,,,,280,,,,,,,,,,,,
,Thailand,2020-06-03 00:00:00,3053,,,,,,56,,,,,,,,,,,,
,Poland,2020-06-03 00:00:00,21588,,,,,,1005,,,,,,,,,,,,
,Estonia,2020-06-03 00:00:00,1833,,,,,,64,,,,,,,,,,,,
,Indonesia,2020-06-03 00:00:00,24386,,,,,,1389,,,,,,,,,,,,
,Romania,2020-06-03 00:00:00,18262,,,,,,1197,,,,,,,,,,,,
,Slovakia,2020-06-03 00:00:00,1510,,,,,,28,,,,,,,,,,,,
,Morocco,2020-06-03 00:00:00,7560,,,,,,199,,,,,,,,,,,,
,Italy,2020-06-03 00:00:00,231196,,,,,,32875,,,,,,,,,,,,
,Turkey,2020-06-03 00:00:00,158265,,,,,,4354,,,,,,,,,,,,
,Uruguay,2020-06-03 00:00:00,788,,,,,,21,,,,,,,,,,,,
