Province/State,Country,Target/Date,N,low95N,high95N,R,low95R,high95R,D,low95D,high95D,T,low95T,high95T,M,low95M,high95M,C,low95C,high95C,
,Morocco,2020-06-02 00:00:00,7820,,,,,,198,,,,,,,,,,,,
,Germany,2020-06-02 00:00:00,180697,,,,,,8284,,,,,,,,,,,,
,Estonia,2020-06-02 00:00:00,1830,,,,,,64,,,,,,,,,,,,
,Austria,2020-06-02 00:00:00,16655,,,,,,639,,,,,,,,,,,,
,Japan,2020-06-02 00:00:00,16779,,,,,,814,,,,,,,,,,,,
,Luxembourg,2020-06-02 00:00:00,4024,,,,,,109,,,,,,,,,,,,
,Egypt,2020-06-02 00:00:00,19310,,,,,,748,,,,,,,,,,,,
,Poland,2020-06-02 00:00:00,21640,,,,,,996,,,,,,,,,,,,
,Croatia,2020-06-02 00:00:00,2256,,,,,,99,,,,,,,,,,,,
,Mexico,2020-06-02 00:00:00,74746,,,,,,7324,,,,,,,,,,,,
,Uruguay,2020-06-02 00:00:00,784,,,,,,21,,,,,,,,,,,,
,Israel,2020-06-02 00:00:00,17089,,,,,,279,,,,,,,,,,,,
,Slovakia,2020-06-02 00:00:00,1526,,,,,,28,,,,,,,,,,,,
,Argentina,2020-06-02 00:00:00,12851,,,,,,450,,,,,,,,,,,,
,Indonesia,2020-06-02 00:00:00,24245,,,,,,1358,,,,,,,,,,,,
,United Arab Emirates,2020-06-02 00:00:00,30474,,,,,,244,,,,,,,,,,,,
,Saudi Arabia,2020-06-02 00:00:00,76370,,,,,,382,,,,,,,,,,,,
,Romania,2020-06-02 00:00:00,18278,,,,,,1185,,,,,,,,,,,,
,Hungary,2020-06-02 00:00:00,3739,,,,,,484,,,,,,,,,,,,
,South Africa,2020-06-02 00:00:00,24792,,,,,,435,,,,,,,,,,,,
,Serbia,2020-06-02 00:00:00,11197,,,,,,238,,,,,,,,,,,,
,Philippines,2020-06-02 00:00:00,15261,,,,,,866,,,,,,,,,,,,
,Chile,2020-06-02 00:00:00,75047,,,,,,697,,,,,,,,,,,,
,Italy,2020-06-02 00:00:00,230450,,,,,,32778,,,,,,,,,,,,
,Canada,2020-06-02 00:00:00,87582,,,,,,6529,,,,,,,,,,,,
,Colombia,2020-06-02 00:00:00,22487,,,,,,716,,,,,,,,,,,,
,New Zealand,2020-06-02 00:00:00,1536,,,,,,21,,,,,,,,,,,,
,India,2020-06-02 00:00:00,175970,,,,,,3964,,,,,,,,,,,,
,Brazil,2020-06-02 00:00:00,395650,,,,,,22387,,,,,,,,,,,,
,Albania,2020-06-02 00:00:00,1014,,,,,,31,,,,,,,,,,,,
,Turkey,2020-06-02 00:00:00,161905,,,,,,4328,,,,,,,,,,,,
,Ukraine,2020-06-02 00:00:00,21036,,,,,,609,,,,,,,,,,,,
,Malaysia,2020-06-02 00:00:00,7532,,,,,,114,,,,,,,,,,,,
,Thailand,2020-06-02 00:00:00,3087,,,,,,56,,,,,,,,,,,,
,Bulgaria,2020-06-02 00:00:00,2414,,,,,,126,,,,,,,,,,,,
,Slovenia,2020-06-02 00:00:00,1488,,,,,,106,,,,,,,,,,,,
,Australia,2020-06-02 00:00:00,7190,,,,,,102,,,,,,,,,,,,
,Singapore,2020-06-02 00:00:00,33676,,,,,,23,,,,,,,,,,,,
