Province/State,Country,Target/Date,N,low95N,high95N,R,low95R,high95R,D,low95D,high95D,T,low95T,high95T,M,low95M,high95M,C,low95C,high95C,
,Luxembourg,2020-06-10 00:00:00,8081,,,,,,101,,,,,,,,,,,,
,Indonesia,2020-06-10 00:00:00,28717,,,,,,963,,,,,,,,,,,,
,Slovenia,2020-06-10 00:00:00,2736,,,,,,101,,,,,,,,,,,,
,Philippines,2020-06-10 00:00:00,19159,,,,,,707,,,,,,,,,,,,
,Turkey,2020-06-10 00:00:00,282595,,,,,,3760,,,,,,,,,,,,
,Thailand,2020-06-10 00:00:00,5558,,,,,,56,,,,,,,,,,,,
,Morocco,2020-06-10 00:00:00,10777,,,,,,187,,,,,,,,,,,,
,Argentina,2020-06-10 00:00:00,12431,,,,,,299,,,,,,,,,,,,
,Slovakia,2020-06-10 00:00:00,2785,,,,,,26,,,,,,,,,,,,
,Serbia,2020-06-10 00:00:00,17496,,,,,,213,,,,,,,,,,,,
,Uruguay,2020-06-10 00:00:00,1581,,,,,,18,,,,,,,,,,,,
,Ukraine,2020-06-10 00:00:00,28505,,,,,,372,,,,,,,,,,,,
,Canada,2020-06-10 00:00:00,170414,,,,,,4883,,,,,,,,,,,,
,Germany,2020-06-10 00:00:00,373985,,,,,,7598,,,,,,,,,,,,
,Croatia,2020-06-10 00:00:00,3833,,,,,,88,,,,,,,,,,,,
,Albania,2020-06-10 00:00:00,1560,,,,,,31,,,,,,,,,,,,
,Romania,2020-06-10 00:00:00,26296,,,,,,939,,,,,,,,,,,,
,Japan,2020-06-10 00:00:00,52266,,,,,,607,,,,,,,,,,,,
,New Zealand,2020-06-10 00:00:00,2956,,,,,,21,,,,,,,,,,,,
,Bulgaria,2020-06-10 00:00:00,3881,,,,,,89,,,,,,,,,,,,
,United Arab Emirates,2020-06-10 00:00:00,36234,,,,,,182,,,,,,,,,,,,
,Mexico,2020-06-10 00:00:00,72358,,,,,,3255,,,,,,,,,,,,
,Chile,2020-06-10 00:00:00,57044,,,,,,303,,,,,,,,,,,,
,Estonia,2020-06-10 00:00:00,3525,,,,,,58,,,,,,,,,,,,
,Poland,2020-06-10 00:00:00,29424,,,,,,787,,,,,,,,,,,,
,Colombia,2020-06-10 00:00:00,21319,,,,,,442,,,,,,,,,,,,
,South Africa,2020-06-10 00:00:00,18519,,,,,,181,,,,,,,,,,,,
,Saudi Arabia,2020-06-10 00:00:00,78123,,,,,,236,,,,,,,,,,,,
,Italy,2020-06-10 00:00:00,414149,,,,,,30683,,,,,,,,,,,,
,India,2020-06-10 00:00:00,184391,,,,,,2113,,,,,,,,,,,,
,Malaysia,2020-06-10 00:00:00,14118,,,,,,108,,,,,,,,,,,,
,Hungary,2020-06-10 00:00:00,6508,,,,,,402,,,,,,,,,,,,
,Brazil,2020-06-10 00:00:00,400194,,,,,,10490,,,,,,,,,,,,
,Israel,2020-06-10 00:00:00,35808,,,,,,249,,,,,,,,,,,,
,Egypt,2020-06-10 00:00:00,16752,,,,,,511,,,,,,,,,,,,
,Australia,2020-06-10 00:00:00,17112,,,,,,99,,,,,,,,,,,,
,Singapore,2020-06-10 00:00:00,54208,,,,,,20,,,,,,,,,,,,
,Austria,2020-06-10 00:00:00,30992,,,,,,621,,,,,,,,,,,,
