Province/State,Country,Target/Date,N,low95N,high95N,R,low95R,high95R,D,low95D,high95D,T,low95T,high95T,M,low95M,high95M,C,low95C,high95C,
,Luxembourg,2020-06-02 00:00:00,16178,,,,,,93,,,,,,,,,,,,
,Indonesia,2020-06-02 00:00:00,46593,,,,,,817,,,,,,,,,,,,
,Slovenia,2020-06-02 00:00:00,6034,,,,,,93,,,,,,,,,,,,
,Philippines,2020-06-02 00:00:00,31824,,,,,,582,,,,,,,,,,,,
,Turkey,2020-06-02 00:00:00,497609,,,,,,3266,,,,,,,,,,,,
,Thailand,2020-06-02 00:00:00,12641,,,,,,55,,,,,,,,,,,,
,Morocco,2020-06-02 00:00:00,16221,,,,,,173,,,,,,,,,,,,
,Argentina,2020-06-02 00:00:00,18616,,,,,,229,,,,,,,,,,,,
,Slovakia,2020-06-02 00:00:00,6390,,,,,,23,,,,,,,,,,,,
,Serbia,2020-06-02 00:00:00,33973,,,,,,183,,,,,,,,,,,,
,Uruguay,2020-06-02 00:00:00,3025,,,,,,16,,,,,,,,,,,,
,Ukraine,2020-06-02 00:00:00,46994,,,,,,270,,,,,,,,,,,,
,Canada,2020-06-02 00:00:00,301885,,,,,,3517,,,,,,,,,,,,
,Germany,2020-06-02 00:00:00,808818,,,,,,6795,,,,,,,,,,,,
,Croatia,2020-06-02 00:00:00,8255,,,,,,73,,,,,,,,,,,,
,Albania,2020-06-02 00:00:00,2985,,,,,,31,,,,,,,,,,,,
,Romania,2020-06-02 00:00:00,46231,,,,,,745,,,,,,,,,,,,
,Japan,2020-06-02 00:00:00,102223,,,,,,455,,,,,,,,,,,,
,New Zealand,2020-06-02 00:00:00,5790,,,,,,19,,,,,,,,,,,,
,Bulgaria,2020-06-02 00:00:00,6378,,,,,,68,,,,,,,,,,,,
,United Arab Emirates,2020-06-02 00:00:00,56331,,,,,,110,,,,,,,,,,,,
,Mexico,2020-06-02 00:00:00,85277,,,,,,1931,,,,,,,,,,,,
,Chile,2020-06-02 00:00:00,71788,,,,,,236,,,,,,,,,,,,
,Estonia,2020-06-02 00:00:00,8087,,,,,,53,,,,,,,,,,,,
,Poland,2020-06-02 00:00:00,54277,,,,,,656,,,,,,,,,,,,
,Colombia,2020-06-02 00:00:00,29022,,,,,,309,,,,,,,,,,,,
,South Africa,2020-06-02 00:00:00,22783,,,,,,113,,,,,,,,,,,,
,Saudi Arabia,2020-06-02 00:00:00,104411,,,,,,170,,,,,,,,,,,,
,Italy,2020-06-02 00:00:00,775966,,,,,,28857,,,,,,,,,,,,
,India,2020-06-02 00:00:00,189849,,,,,,1225,,,,,,,,,,,,
,Malaysia,2020-06-02 00:00:00,28901,,,,,,103,,,,,,,,,,,,
,Hungary,2020-06-02 00:00:00,12062,,,,,,323,,,,,,,,,,,,
,Brazil,2020-06-02 00:00:00,494427,,,,,,6322,,,,,,,,,,,,
,Israel,2020-06-02 00:00:00,70089,,,,,,226,,,,,,,,,,,,
,Egypt,2020-06-02 00:00:00,24430,,,,,,402,,,,,,,,,,,,
,Australia,2020-06-02 00:00:00,39531,,,,,,95,,,,,,,,,,,,
,Singapore,2020-06-02 00:00:00,63238,,,,,,15,,,,,,,,,,,,
,Austria,2020-06-02 00:00:00,67524,,,,,,597,,,,,,,,,,,,
