Province/State,Country,Target/Date,N,low95N,high95N,R,low95R,high95R,D,low95D,high95D,T,low95T,high95T,M,low95M,high95M,C,low95C,high95C,
,Luxembourg,2020-05-19 00:00:00,28432,,,,,,74,,,,,,,,,,,,
,Indonesia,2020-05-19 00:00:00,36900,,,,,,538,,,,,,,,,,,,
,Slovenia,2020-05-19 00:00:00,10383,,,,,,69,,,,,,,,,,,,
,Philippines,2020-05-19 00:00:00,36016,,,,,,401,,,,,,,,,,,,
,Turkey,2020-05-19 00:00:00,554069,,,,,,1817,,,,,,,,,,,,
,Thailand,2020-05-19 00:00:00,18622,,,,,,48,,,,,,,,,,,,
,Morocco,2020-05-19 00:00:00,16316,,,,,,142,,,,,,,,,,,,
,Argentina,2020-05-19 00:00:00,24893,,,,,,128,,,,,,,,,,,,
,Slovakia,2020-05-19 00:00:00,7515,,,,,,8,,,,,,,,,,,,
,Serbia,2020-05-19 00:00:00,44643,,,,,,116,,,,,,,,,,,,
,Uruguay,2020-05-19 00:00:00,3824,,,,,,9,,,,,,,,,,,,
,Ukraine,2020-05-19 00:00:00,42280,,,,,,129,,,,,,,,,,,,
,Canada,2020-05-19 00:00:00,341491,,,,,,1329,,,,,,,,,,,,
,Germany,2020-05-19 00:00:00,1269021,,,,,,4339,,,,,,,,,,,,
,Croatia,2020-05-19 00:00:00,14857,,,,,,39,,,,,,,,,,,,
,Albania,2020-05-19 00:00:00,3628,,,,,,27,,,,,,,,,,,,
,Romania,2020-05-19 00:00:00,57642,,,,,,427,,,,,,,,,,,,
,Japan,2020-05-19 00:00:00,102012,,,,,,195,,,,,,,,,,,,
,New Zealand,2020-05-19 00:00:00,12198,,,,,,10,,,,,,,,,,,,
,Bulgaria,2020-05-19 00:00:00,6469,,,,,,41,,,,,,,,,,,,
,United Arab Emirates,2020-05-19 00:00:00,52935,,,,,,37,,,,,,,,,,,,
,Mexico,2020-05-19 00:00:00,53744,,,,,,573,,,,,,,,,,,,
,Chile,2020-05-19 00:00:00,67336,,,,,,117,,,,,,,,,,,,
,Estonia,2020-05-19 00:00:00,11955,,,,,,38,,,,,,,,,,,,
,Poland,2020-05-19 00:00:00,60767,,,,,,338,,,,,,,,,,,,
,Colombia,2020-05-19 00:00:00,26563,,,,,,158,,,,,,,,,,,,
,South Africa,2020-05-19 00:00:00,18386,,,,,,47,,,,,,,,,,,,
,Saudi Arabia,2020-05-19 00:00:00,67504,,,,,,91,,,,,,,,,,,,
,Italy,2020-05-19 00:00:00,1448866,,,,,,24106,,,,,,,,,,,,
,India,2020-05-19 00:00:00,108750,,,,,,508,,,,,,,,,,,,
,Malaysia,2020-05-19 00:00:00,37257,,,,,,90,,,,,,,,,,,,
,Hungary,2020-05-19 00:00:00,13939,,,,,,162,,,,,,,,,,,,
,Brazil,2020-05-19 00:00:00,344568,,,,,,2156,,,,,,,,,,,,
,Israel,2020-05-19 00:00:00,107878,,,,,,157,,,,,,,,,,,,
,Egypt,2020-05-19 00:00:00,16583,,,,,,217,,,,,,,,,,,,
,Australia,2020-05-19 00:00:00,67258,,,,,,68,,,,,,,,,,,,
,Singapore,2020-05-19 00:00:00,36682,,,,,,11,,,,,,,,,,,,
,Austria,2020-05-19 00:00:00,111226,,,,,,446,,,,,,,,,,,,
