Province/State,Country,Target/Date,N,low95N,high95N,R,low95R,high95R,D,low95D,high95D,T,low95T,high95T,M,low95M,high95M,C,low95C,high95C,
,Luxembourg,2020-05-31 00:00:00,17037,,,,,,91,,,,,,,,,,,,
,Indonesia,2020-05-31 00:00:00,51894,,,,,,794,,,,,,,,,,,,
,Slovenia,2020-05-31 00:00:00,7275,,,,,,89,,,,,,,,,,,,
,Philippines,2020-05-31 00:00:00,36103,,,,,,551,,,,,,,,,,,,
,Turkey,2020-05-31 00:00:00,537415,,,,,,3101,,,,,,,,,,,,
,Thailand,2020-05-31 00:00:00,14431,,,,,,54,,,,,,,,,,,,
,Morocco,2020-05-31 00:00:00,17547,,,,,,169,,,,,,,,,,,,
,Argentina,2020-05-31 00:00:00,18534,,,,,,214,,,,,,,,,,,,
,Slovakia,2020-05-31 00:00:00,7956,,,,,,21,,,,,,,,,,,,
,Serbia,2020-05-31 00:00:00,38547,,,,,,174,,,,,,,,,,,,
,Uruguay,2020-05-31 00:00:00,2986,,,,,,16,,,,,,,,,,,,
,Ukraine,2020-05-31 00:00:00,54448,,,,,,248,,,,,,,,,,,,
,Canada,2020-05-31 00:00:00,305297,,,,,,3184,,,,,,,,,,,,
,Germany,2020-05-31 00:00:00,926275,,,,,,6568,,,,,,,,,,,,
,Croatia,2020-05-31 00:00:00,9848,,,,,,66,,,,,,,,,,,,
,Albania,2020-05-31 00:00:00,3435,,,,,,30,,,,,,,,,,,,
,Romania,2020-05-31 00:00:00,50919,,,,,,699,,,,,,,,,,,,
,Japan,2020-05-31 00:00:00,100853,,,,,,421,,,,,,,,,,,,
,New Zealand,2020-05-31 00:00:00,6096,,,,,,19,,,,,,,,,,,,
,Bulgaria,2020-05-31 00:00:00,6673,,,,,,63,,,,,,,,,,,,
,United Arab Emirates,2020-05-31 00:00:00,60847,,,,,,95,,,,,,,,,,,,
,Mexico,2020-05-31 00:00:00,85574,,,,,,1691,,,,,,,,,,,,
,Chile,2020-05-31 00:00:00,69935,,,,,,216,,,,,,,,,,,,
,Estonia,2020-05-31 00:00:00,9781,,,,,,51,,,,,,,,,,,,
,Poland,2020-05-31 00:00:00,62475,,,,,,618,,,,,,,,,,,,
,Colombia,2020-05-31 00:00:00,30370,,,,,,281,,,,,,,,,,,,
,South Africa,2020-05-31 00:00:00,23217,,,,,,100,,,,,,,,,,,,
,Saudi Arabia,2020-05-31 00:00:00,111927,,,,,,157,,,,,,,,,,,,
,Italy,2020-05-31 00:00:00,816560,,,,,,28444,,,,,,,,,,,,
,India,2020-05-31 00:00:00,191752,,,,,,1104,,,,,,,,,,,,
,Malaysia,2020-05-31 00:00:00,31672,,,,,,102,,,,,,,,,,,,
,Hungary,2020-05-31 00:00:00,13411,,,,,,304,,,,,,,,,,,,
,Brazil,2020-05-31 00:00:00,464613,,,,,,5483,,,,,,,,,,,,
,Israel,2020-05-31 00:00:00,80183,,,,,,216,,,,,,,,,,,,
,Egypt,2020-05-31 00:00:00,28864,,,,,,371,,,,,,,,,,,,
,Australia,2020-05-31 00:00:00,39931,,,,,,91,,,,,,,,,,,,
,Singapore,2020-05-31 00:00:00,91375,,,,,,14,,,,,,,,,,,,
,Austria,2020-05-31 00:00:00,79364,,,,,,583,,,,,,,,,,,,
