Province/State,Country,Target/Date,N,low95N,high95N,R,low95R,high95R,D,low95D,high95D,T,low95T,high95T,M,low95M,high95M,C,low95C,high95C,
,Luxembourg,2020-05-21 00:00:00,14527,,,,,,75,,,,,,,,,,,,
,Indonesia,2020-05-21 00:00:00,31786,,,,,,572,,,,,,,,,,,,
,Slovenia,2020-05-21 00:00:00,6610,,,,,,73,,,,,,,,,,,,
,Philippines,2020-05-21 00:00:00,28312,,,,,,417,,,,,,,,,,,,
,Turkey,2020-05-21 00:00:00,370702,,,,,,2017,,,,,,,,,,,,
,Thailand,2020-05-21 00:00:00,12697,,,,,,48,,,,,,,,,,,,
,Morocco,2020-05-21 00:00:00,11809,,,,,,143,,,,,,,,,,,,
,Argentina,2020-05-21 00:00:00,12431,,,,,,135,,,,,,,,,,,,
,Slovakia,2020-05-21 00:00:00,5721,,,,,,11,,,,,,,,,,,,
,Serbia,2020-05-21 00:00:00,29591,,,,,,123,,,,,,,,,,,,
,Uruguay,2020-05-21 00:00:00,1977,,,,,,10,,,,,,,,,,,,
,Ukraine,2020-05-21 00:00:00,29004,,,,,,143,,,,,,,,,,,,
,Canada,2020-05-21 00:00:00,201090,,,,,,1585,,,,,,,,,,,,
,Germany,2020-05-21 00:00:00,752886,,,,,,4718,,,,,,,,,,,,
,Croatia,2020-05-21 00:00:00,8935,,,,,,43,,,,,,,,,,,,
,Albania,2020-05-21 00:00:00,2441,,,,,,26,,,,,,,,,,,,
,Romania,2020-05-21 00:00:00,38443,,,,,,459,,,,,,,,,,,,
,Japan,2020-05-21 00:00:00,66197,,,,,,228,,,,,,,,,,,,
,New Zealand,2020-05-21 00:00:00,5859,,,,,,11,,,,,,,,,,,,
,Bulgaria,2020-05-21 00:00:00,3888,,,,,,43,,,,,,,,,,,,
,United Arab Emirates,2020-05-21 00:00:00,32329,,,,,,41,,,,,,,,,,,,
,Mexico,2020-05-21 00:00:00,35676,,,,,,677,,,,,,,,,,,,
,Chile,2020-05-21 00:00:00,40089,,,,,,131,,,,,,,,,,,,
,Estonia,2020-05-21 00:00:00,7673,,,,,,40,,,,,,,,,,,,
,Poland,2020-05-21 00:00:00,40735,,,,,,369,,,,,,,,,,,,
,Colombia,2020-05-21 00:00:00,16388,,,,,,174,,,,,,,,,,,,
,South Africa,2020-05-21 00:00:00,12879,,,,,,55,,,,,,,,,,,,
,Saudi Arabia,2020-05-21 00:00:00,46220,,,,,,98,,,,,,,,,,,,
,Italy,2020-05-21 00:00:00,773900,,,,,,24450,,,,,,,,,,,,
,India,2020-05-21 00:00:00,113734,,,,,,567,,,,,,,,,,,,
,Malaysia,2020-05-21 00:00:00,23965,,,,,,90,,,,,,,,,,,,
,Hungary,2020-05-21 00:00:00,8798,,,,,,185,,,,,,,,,,,,
,Brazil,2020-05-21 00:00:00,214470,,,,,,2440,,,,,,,,,,,,
,Israel,2020-05-21 00:00:00,56193,,,,,,170,,,,,,,,,,,,
,Egypt,2020-05-21 00:00:00,15993,,,,,,236,,,,,,,,,,,,
,Australia,2020-05-21 00:00:00,34724,,,,,,68,,,,,,,,,,,,
,Singapore,2020-05-21 00:00:00,35341,,,,,,11,,,,,,,,,,,,
,Austria,2020-05-21 00:00:00,71566,,,,,,465,,,,,,,,,,,,
