Province/State,Country,Target/Date,N,low95N,high95N,R,low95R,high95R,D,low95D,high95D,T,low95T,high95T,M,low95M,high95M,C,low95C,high95C,
,Luxembourg,2020-06-07 00:00:00,7229,,,,,,99,,,,,,,,,,,,
,Indonesia,2020-06-07 00:00:00,23182,,,,,,904,,,,,,,,,,,,
,Slovenia,2020-06-07 00:00:00,2839,,,,,,99,,,,,,,,,,,,
,Philippines,2020-06-07 00:00:00,16111,,,,,,658,,,,,,,,,,,,
,Turkey,2020-06-07 00:00:00,242690,,,,,,3597,,,,,,,,,,,,
,Thailand,2020-06-07 00:00:00,5357,,,,,,55,,,,,,,,,,,,
,Morocco,2020-06-07 00:00:00,8733,,,,,,183,,,,,,,,,,,,
,Argentina,2020-06-07 00:00:00,9524,,,,,,275,,,,,,,,,,,,
,Slovakia,2020-06-07 00:00:00,2884,,,,,,25,,,,,,,,,,,,
,Serbia,2020-06-07 00:00:00,17138,,,,,,203,,,,,,,,,,,,
,Uruguay,2020-06-07 00:00:00,1313,,,,,,17,,,,,,,,,,,,
,Ukraine,2020-06-07 00:00:00,26776,,,,,,327,,,,,,,,,,,,
,Canada,2020-06-07 00:00:00,151851,,,,,,4395,,,,,,,,,,,,
,Germany,2020-06-07 00:00:00,366567,,,,,,7263,,,,,,,,,,,,
,Croatia,2020-06-07 00:00:00,3837,,,,,,84,,,,,,,,,,,,
,Albania,2020-06-07 00:00:00,1433,,,,,,31,,,,,,,,,,,,
,Romania,2020-06-07 00:00:00,24538,,,,,,865,,,,,,,,,,,,
,Japan,2020-06-07 00:00:00,47544,,,,,,558,,,,,,,,,,,,
,New Zealand,2020-06-07 00:00:00,2621,,,,,,20,,,,,,,,,,,,
,Bulgaria,2020-06-07 00:00:00,3402,,,,,,81,,,,,,,,,,,,
,United Arab Emirates,2020-06-07 00:00:00,29617,,,,,,152,,,,,,,,,,,,
,Mexico,2020-06-07 00:00:00,52652,,,,,,2677,,,,,,,,,,,,
,Chile,2020-06-07 00:00:00,43326,,,,,,281,,,,,,,,,,,,
,Estonia,2020-06-07 00:00:00,3605,,,,,,55,,,,,,,,,,,,
,Poland,2020-06-07 00:00:00,27885,,,,,,735,,,,,,,,,,,,
,Colombia,2020-06-07 00:00:00,16382,,,,,,390,,,,,,,,,,,,
,South Africa,2020-06-07 00:00:00,13862,,,,,,153,,,,,,,,,,,,
,Saudi Arabia,2020-06-07 00:00:00,61111,,,,,,209,,,,,,,,,,,,
,Italy,2020-06-07 00:00:00,380862,,,,,,29923,,,,,,,,,,,,
,India,2020-06-07 00:00:00,127628,,,,,,1773,,,,,,,,,,,,
,Malaysia,2020-06-07 00:00:00,12405,,,,,,107,,,,,,,,,,,,
,Hungary,2020-06-07 00:00:00,6015,,,,,,371,,,,,,,,,,,,
,Brazil,2020-06-07 00:00:00,288956,,,,,,8626,,,,,,,,,,,,
,Israel,2020-06-07 00:00:00,31511,,,,,,241,,,,,,,,,,,,
,Egypt,2020-06-07 00:00:00,13549,,,,,,467,,,,,,,,,,,,
,Australia,2020-06-07 00:00:00,15231,,,,,,99,,,,,,,,,,,,
,Singapore,2020-06-07 00:00:00,52070,,,,,,19,,,,,,,,,,,,
,Austria,2020-06-07 00:00:00,30748,,,,,,612,,,,,,,,,,,,
