Province/State,Country,Target/Date,N,low95N,high95N,R,low95R,high95R,D,low95D,high95D,T,low95T,high95T,M,low95M,high95M,C,low95C,high95C,
,Poland,2020-06-11 00:00:00,26291,,,,,,1152,,,,,,,,,,,,
,Malaysia,2020-06-11 00:00:00,8325,,,,,,116,,,,,,,,,,,,
,Turkey,2020-06-11 00:00:00,169922,,,,,,4679,,,,,,,,,,,,
,Chile,2020-06-11 00:00:00,131413,,,,,,1754,,,,,,,,,,,,
,Saudi Arabia,2020-06-11 00:00:00,100944,,,,,,694,,,,,,,,,,,,
,Egypt,2020-06-11 00:00:00,34203,,,,,,1217,,,,,,,,,,,,
,Ukraine,2020-06-11 00:00:00,27300,,,,,,788,,,,,,,,,,,,
,Austria,2020-06-11 00:00:00,16901,,,,,,671,,,,,,,,,,,,
,Israel,2020-06-11 00:00:00,17849,,,,,,295,,,,,,,,,,,,
,Argentina,2020-06-11 00:00:00,22712,,,,,,660,,,,,,,,,,,,
,Morocco,2020-06-11 00:00:00,8252,,,,,,208,,,,,,,,,,,,
,Canada,2020-06-11 00:00:00,96968,,,,,,7849,,,,,,,,,,,,
,Singapore,2020-06-11 00:00:00,37730,,,,,,24,,,,,,,,,,,,
,Uruguay,2020-06-11 00:00:00,841,,,,,,22,,,,,,,,,,,,
,Brazil,2020-06-11 00:00:00,686749,,,,,,36160,,,,,,,,,,,,
,Thailand,2020-06-11 00:00:00,3110,,,,,,57,,,,,,,,,,,,
,Romania,2020-06-11 00:00:00,20358,,,,,,1328,,,,,,,,,,,,
,Germany,2020-06-11 00:00:00,185562,,,,,,8679,,,,,,,,,,,,
,Japan,2020-06-11 00:00:00,17015,,,,,,916,,,,,,,,,,,,
,Croatia,2020-06-11 00:00:00,2247,,,,,,103,,,,,,,,,,,,
,Italy,2020-06-11 00:00:00,234898,,,,,,33867,,,,,,,,,,,,
,Philippines,2020-06-11 00:00:00,22001,,,,,,999,,,,,,,,,,,,
,New Zealand,2020-06-11 00:00:00,1504,,,,,,22,,,,,,,,,,,,
,United Arab Emirates,2020-06-11 00:00:00,38508,,,,,,276,,,,,,,,,,,,
,India,2020-06-11 00:00:00,256375,,,,,,7064,,,,,,,,,,,,
,Slovakia,2020-06-11 00:00:00,1528,,,,,,27,,,,,,,,,,,,
,Estonia,2020-06-11 00:00:00,1926,,,,,,69,,,,,,,,,,,,
,Australia,2020-06-11 00:00:00,7267,,,,,,101,,,,,,,,,,,,
,Slovenia,2020-06-11 00:00:00,1482,,,,,,109,,,,,,,,,,,,
,Indonesia,2020-06-11 00:00:00,31208,,,,,,1824,,,,,,,,,,,,
,Albania,2020-06-11 00:00:00,1243,,,,,,33,,,,,,,,,,,,
,South Africa,2020-06-11 00:00:00,48356,,,,,,991,,,,,,,,,,,,
,Serbia,2020-06-11 00:00:00,11780,,,,,,248,,,,,,,,,,,,
,Luxembourg,2020-06-11 00:00:00,4037,,,,,,109,,,,,,,,,,,,
,Colombia,2020-06-11 00:00:00,38230,,,,,,1252,,,,,,,,,,,,
,Hungary,2020-06-11 00:00:00,3992,,,,,,544,,,,,,,,,,,,
,Bulgaria,2020-06-11 00:00:00,2725,,,,,,159,,,,,,,,,,,,
,Mexico,2020-06-11 00:00:00,116768,,,,,,13603,,,,,,,,,,,,
