Province/State,Country,Target/Date,N,low95N,high95N,R,low95R,high95R,D,low95D,high95D,T,low95T,high95T,M,low95M,high95M,C,low95C,high95C,
,Poland,2020-06-12 00:00:00,26832,,,,,,1166,,,,,,,,,,,,
,Malaysia,2020-06-12 00:00:00,8377,,,,,,116,,,,,,,,,,,,
,Turkey,2020-06-12 00:00:00,171968,,,,,,4698,,,,,,,,,,,,
,Chile,2020-06-12 00:00:00,137304,,,,,,1941,,,,,,,,,,,,
,Saudi Arabia,2020-06-12 00:00:00,104732,,,,,,729,,,,,,,,,,,,
,Egypt,2020-06-12 00:00:00,35472,,,,,,1253,,,,,,,,,,,,
,Ukraine,2020-06-12 00:00:00,27905,,,,,,802,,,,,,,,,,,,
,Austria,2020-06-12 00:00:00,16948,,,,,,672,,,,,,,,,,,,
,Israel,2020-06-12 00:00:00,18071,,,,,,296,,,,,,,,,,,,
,Argentina,2020-06-12 00:00:00,23715,,,,,,681,,,,,,,,,,,,
,Morocco,2020-06-12 00:00:00,8351,,,,,,208,,,,,,,,,,,,
,Canada,2020-06-12 00:00:00,97921,,,,,,7903,,,,,,,,,,,,
,Singapore,2020-06-12 00:00:00,38187,,,,,,24,,,,,,,,,,,,
,Uruguay,2020-06-12 00:00:00,846,,,,,,23,,,,,,,,,,,,
,Brazil,2020-06-12 00:00:00,717015,,,,,,37109,,,,,,,,,,,,
,Thailand,2020-06-12 00:00:00,3119,,,,,,57,,,,,,,,,,,,
,Romania,2020-06-12 00:00:00,20554,,,,,,1337,,,,,,,,,,,,
,Germany,2020-06-12 00:00:00,185904,,,,,,8699,,,,,,,,,,,,
,Japan,2020-06-12 00:00:00,17066,,,,,,918,,,,,,,,,,,,
,Croatia,2020-06-12 00:00:00,2247,,,,,,104,,,,,,,,,,,,
,Italy,2020-06-12 00:00:00,235190,,,,,,33938,,,,,,,,,,,,
,Philippines,2020-06-12 00:00:00,22536,,,,,,1006,,,,,,,,,,,,
,New Zealand,2020-06-12 00:00:00,1512,,,,,,22,,,,,,,,,,,,
,United Arab Emirates,2020-06-12 00:00:00,39302,,,,,,278,,,,,,,,,,,,
,India,2020-06-12 00:00:00,267866,,,,,,7294,,,,,,,,,,,,
,Slovakia,2020-06-12 00:00:00,1530,,,,,,27,,,,,,,,,,,,
,Estonia,2020-06-12 00:00:00,1944,,,,,,68,,,,,,,,,,,,
,Australia,2020-06-12 00:00:00,7307,,,,,,102,,,,,,,,,,,,
,Slovenia,2020-06-12 00:00:00,1487,,,,,,108,,,,,,,,,,,,
,Indonesia,2020-06-12 00:00:00,32257,,,,,,1864,,,,,,,,,,,,
,Albania,2020-06-12 00:00:00,1272,,,,,,33,,,,,,,,,,,,
,South Africa,2020-06-12 00:00:00,50579,,,,,,1051,,,,,,,,,,,,
,Serbia,2020-06-12 00:00:00,11910,,,,,,249,,,,,,,,,,,,
,Luxembourg,2020-06-12 00:00:00,4045,,,,,,109,,,,,,,,,,,,
,Colombia,2020-06-12 00:00:00,39815,,,,,,1309,,,,,,,,,,,,
,Hungary,2020-06-12 00:00:00,4004,,,,,,546,,,,,,,,,,,,
,Bulgaria,2020-06-12 00:00:00,2797,,,,,,162,,,,,,,,,,,,
,Mexico,2020-06-12 00:00:00,120857,,,,,,14075,,,,,,,,,,,,
