Province/State,Country,Target/Date,N,low95N,high95N,R,low95R,high95R,D,low95D,high95D,T,low95T,high95T,M,low95M,high95M,C,low95C,high95C,
,New Zealand,2020-06-02 00:00:00,1606,,,,,,21,,,,,,,,,,,,
,Slovakia,2020-06-02 00:00:00,1562,,,,,,28,,,,,,,,,,,,
,Albania,2020-06-02 00:00:00,1056,,,,,,31,,,,,,,,,,,,
,Brazil,2020-06-02 00:00:00,398462,,,,,,22465,,,,,,,,,,,,
,Thailand,2020-06-02 00:00:00,3228,,,,,,56,,,,,,,,,,,,
,Croatia,2020-06-02 00:00:00,2305,,,,,,99,,,,,,,,,,,,
,Slovenia,2020-06-02 00:00:00,1524,,,,,,106,,,,,,,,,,,,
,Malaysia,2020-06-02 00:00:00,8003,,,,,,115,,,,,,,,,,,,
,Italy,2020-06-02 00:00:00,238826,,,,,,32823,,,,,,,,,,,,
,Morocco,2020-06-02 00:00:00,8135,,,,,,199,,,,,,,,,,,,
,Argentina,2020-06-02 00:00:00,12861,,,,,,451,,,,,,,,,,,,
,Israel,2020-06-02 00:00:00,18245,,,,,,280,,,,,,,,,,,,
,Turkey,2020-06-02 00:00:00,170315,,,,,,4338,,,,,,,,,,,,
,Singapore,2020-06-02 00:00:00,37604,,,,,,23,,,,,,,,,,,,
,Austria,2020-06-02 00:00:00,17192,,,,,,639,,,,,,,,,,,,
,Philippines,2020-06-02 00:00:00,15782,,,,,,867,,,,,,,,,,,,
,Bulgaria,2020-06-02 00:00:00,2509,,,,,,127,,,,,,,,,,,,
,Mexico,2020-06-02 00:00:00,75988,,,,,,7343,,,,,,,,,,,,
,Luxembourg,2020-06-02 00:00:00,4220,,,,,,109,,,,,,,,,,,,
,Egypt,2020-06-02 00:00:00,19375,,,,,,748,,,,,,,,,,,,
,South Africa,2020-06-02 00:00:00,24704,,,,,,436,,,,,,,,,,,,
,Chile,2020-06-02 00:00:00,75235,,,,,,699,,,,,,,,,,,,
,Germany,2020-06-02 00:00:00,186988,,,,,,8300,,,,,,,,,,,,
,Serbia,2020-06-02 00:00:00,11555,,,,,,238,,,,,,,,,,,,
,Ukraine,2020-06-02 00:00:00,21535,,,,,,610,,,,,,,,,,,,
,Saudi Arabia,2020-06-02 00:00:00,78580,,,,,,384,,,,,,,,,,,,
,Estonia,2020-06-02 00:00:00,1888,,,,,,64,,,,,,,,,,,,
,India,2020-06-02 00:00:00,176037,,,,,,3975,,,,,,,,,,,,
,Romania,2020-06-02 00:00:00,18704,,,,,,1185,,,,,,,,,,,,
,Japan,2020-06-02 00:00:00,17586,,,,,,816,,,,,,,,,,,,
,Poland,2020-06-02 00:00:00,22007,,,,,,997,,,,,,,,,,,,
,Uruguay,2020-06-02 00:00:00,826,,,,,,21,,,,,,,,,,,,
,Hungary,2020-06-02 00:00:00,3887,,,,,,485,,,,,,,,,,,,
,Canada,2020-06-02 00:00:00,88758,,,,,,6547,,,,,,,,,,,,
,United Arab Emirates,2020-06-02 00:00:00,32131,,,,,,245,,,,,,,,,,,,
,Australia,2020-06-02 00:00:00,7460,,,,,,102,,,,,,,,,,,,
,Colombia,2020-06-02 00:00:00,22949,,,,,,718,,,,,,,,,,,,
,Indonesia,2020-06-02 00:00:00,24996,,,,,,1360,,,,,,,,,,,,
