Province/State,Country,Target/Date,N,low95N,high95N,R,low95R,high95R,D,low95D,high95D,T,low95T,high95T,M,low95M,high95M,C,low95C,high95C,
,South Africa,2020-06-12 00:00:00,51312,,,,,,1051,,,,,,,,,,,,
,Slovakia,2020-06-12 00:00:00,1533,,,,,,27,,,,,,,,,,,,
,Turkey,2020-06-12 00:00:00,172940,,,,,,4699,,,,,,,,,,,,
,Egypt,2020-06-12 00:00:00,35735,,,,,,1253,,,,,,,,,,,,
,Morocco,2020-06-12 00:00:00,8397,,,,,,208,,,,,,,,,,,,
,Chile,2020-06-12 00:00:00,139125,,,,,,1942,,,,,,,,,,,,
,Poland,2020-06-12 00:00:00,26898,,,,,,1166,,,,,,,,,,,,
,Philippines,2020-06-12 00:00:00,22615,,,,,,1006,,,,,,,,,,,,
,Serbia,2020-06-12 00:00:00,11906,,,,,,249,,,,,,,,,,,,
,India,2020-06-12 00:00:00,268678,,,,,,7297,,,,,,,,,,,,
,Argentina,2020-06-12 00:00:00,24107,,,,,,681,,,,,,,,,,,,
,Canada,2020-06-12 00:00:00,97953,,,,,,7903,,,,,,,,,,,,
,Hungary,2020-06-12 00:00:00,4021,,,,,,546,,,,,,,,,,,,
,Australia,2020-06-12 00:00:00,7298,,,,,,101,,,,,,,,,,,,
,Uruguay,2020-06-12 00:00:00,851,,,,,,23,,,,,,,,,,,,
,Malaysia,2020-06-12 00:00:00,8435,,,,,,116,,,,,,,,,,,,
,Singapore,2020-06-12 00:00:00,38885,,,,,,24,,,,,,,,,,,,
,United Arab Emirates,2020-06-12 00:00:00,39718,,,,,,278,,,,,,,,,,,,
,Bulgaria,2020-06-12 00:00:00,2812,,,,,,162,,,,,,,,,,,,
,Indonesia,2020-06-12 00:00:00,32388,,,,,,1864,,,,,,,,,,,,
,Estonia,2020-06-12 00:00:00,1947,,,,,,68,,,,,,,,,,,,
,Albania,2020-06-12 00:00:00,1276,,,,,,33,,,,,,,,,,,,
,Romania,2020-06-12 00:00:00,20615,,,,,,1337,,,,,,,,,,,,
,Brazil,2020-06-12 00:00:00,725054,,,,,,37116,,,,,,,,,,,,
,Austria,2020-06-12 00:00:00,16979,,,,,,672,,,,,,,,,,,,
,Colombia,2020-06-12 00:00:00,40481,,,,,,1310,,,,,,,,,,,,
,Croatia,2020-06-12 00:00:00,2253,,,,,,104,,,,,,,,,,,,
,New Zealand,2020-06-12 00:00:00,1513,,,,,,22,,,,,,,,,,,,
,Japan,2020-06-12 00:00:00,17152,,,,,,918,,,,,,,,,,,,
,Slovenia,2020-06-12 00:00:00,1488,,,,,,108,,,,,,,,,,,,
,Italy,2020-06-12 00:00:00,235828,,,,,,33938,,,,,,,,,,,,
,Thailand,2020-06-12 00:00:00,3125,,,,,,57,,,,,,,,,,,,
,Israel,2020-06-12 00:00:00,18288,,,,,,296,,,,,,,,,,,,
,Germany,2020-06-12 00:00:00,186544,,,,,,8699,,,,,,,,,,,,
,Saudi Arabia,2020-06-12 00:00:00,105821,,,,,,729,,,,,,,,,,,,
,Luxembourg,2020-06-12 00:00:00,4055,,,,,,109,,,,,,,,,,,,
,Mexico,2020-06-12 00:00:00,122343,,,,,,14079,,,,,,,,,,,,
,Ukraine,2020-06-12 00:00:00,28114,,,,,,802,,,,,,,,,,,,
