Province/State,Country,Target/Date,N,low95N,high95N,R,low95R,high95R,D,low95D,high95D,T,low95T,high95T,M,low95M,high95M,C,low95C,high95C,
,South Africa,2020-06-16 00:00:00,52755,,,,,,993,,,,,,,,,,,,
,Slovakia,2020-06-16 00:00:00,1534,,,,,,28,,,,,,,,,,,,
,Turkey,2020-06-16 00:00:00,177269,,,,,,4683,,,,,,,,,,,,
,Egypt,2020-06-16 00:00:00,36559,,,,,,1218,,,,,,,,,,,,
,Morocco,2020-06-16 00:00:00,8639,,,,,,208,,,,,,,,,,,,
,Chile,2020-06-16 00:00:00,141809,,,,,,1757,,,,,,,,,,,,
,Poland,2020-06-16 00:00:00,26466,,,,,,1152,,,,,,,,,,,,
,Philippines,2020-06-16 00:00:00,23095,,,,,,999,,,,,,,,,,,,
,Serbia,2020-06-16 00:00:00,11873,,,,,,248,,,,,,,,,,,,
,India,2020-06-16 00:00:00,285985,,,,,,7080,,,,,,,,,,,,
,Argentina,2020-06-16 00:00:00,24874,,,,,,661,,,,,,,,,,,,
,Canada,2020-06-16 00:00:00,99641,,,,,,7864,,,,,,,,,,,,
,Hungary,2020-06-16 00:00:00,4012,,,,,,545,,,,,,,,,,,,
,Australia,2020-06-16 00:00:00,7459,,,,,,102,,,,,,,,,,,,
,Uruguay,2020-06-16 00:00:00,866,,,,,,23,,,,,,,,,,,,
,Malaysia,2020-06-16 00:00:00,8659,,,,,,116,,,,,,,,,,,,
,Singapore,2020-06-16 00:00:00,41914,,,,,,24,,,,,,,,,,,,
,United Arab Emirates,2020-06-16 00:00:00,40019,,,,,,276,,,,,,,,,,,,
,Bulgaria,2020-06-16 00:00:00,2741,,,,,,159,,,,,,,,,,,,
,Indonesia,2020-06-16 00:00:00,32775,,,,,,1825,,,,,,,,,,,,
,Estonia,2020-06-16 00:00:00,1945,,,,,,69,,,,,,,,,,,,
,Albania,2020-06-16 00:00:00,1268,,,,,,33,,,,,,,,,,,,
,Romania,2020-06-16 00:00:00,20457,,,,,,1328,,,,,,,,,,,,
,Brazil,2020-06-16 00:00:00,748990,,,,,,36250,,,,,,,,,,,,
,Austria,2020-06-16 00:00:00,16943,,,,,,671,,,,,,,,,,,,
,Colombia,2020-06-16 00:00:00,41567,,,,,,1254,,,,,,,,,,,,
,Croatia,2020-06-16 00:00:00,2249,,,,,,103,,,,,,,,,,,,
,New Zealand,2020-06-16 00:00:00,1539,,,,,,22,,,,,,,,,,,,
,Japan,2020-06-16 00:00:00,17245,,,,,,916,,,,,,,,,,,,
,Slovenia,2020-06-16 00:00:00,1490,,,,,,109,,,,,,,,,,,,
,Italy,2020-06-16 00:00:00,235115,,,,,,33874,,,,,,,,,,,,
,Thailand,2020-06-16 00:00:00,3132,,,,,,57,,,,,,,,,,,,
,Israel,2020-06-16 00:00:00,18795,,,,,,295,,,,,,,,,,,,
,Germany,2020-06-16 00:00:00,186042,,,,,,8682,,,,,,,,,,,,
,Saudi Arabia,2020-06-16 00:00:00,105168,,,,,,695,,,,,,,,,,,,
,Luxembourg,2020-06-16 00:00:00,4087,,,,,,110,,,,,,,,,,,,
,Mexico,2020-06-16 00:00:00,125680,,,,,,13627,,,,,,,,,,,,
,Ukraine,2020-06-16 00:00:00,27988,,,,,,788,,,,,,,,,,,,
