Province/State,Country,Target/Date,N,low95N,high95N,R,low95R,high95R,D,low95D,high95D,T,low95T,high95T,M,low95M,high95M,C,low95C,high95C,
,New Zealand,2020-06-10 00:00:00,1547,,,,,,22,,,,,,,,,,,,
,Turkey,2020-06-10 00:00:00,166358,,,,,,4555,,,,,,,,,,,,
,Albania,2020-06-10 00:00:00,1154,,,,,,33,,,,,,,,,,,,
,United Arab Emirates,2020-06-10 00:00:00,35786,,,,,,265,,,,,,,,,,,,
,Slovenia,2020-06-10 00:00:00,1477,,,,,,108,,,,,,,,,,,,
,Estonia,2020-06-10 00:00:00,1870,,,,,,67,,,,,,,,,,,,
,Mexico,2020-06-10 00:00:00,101008,,,,,,10301,,,,,,,,,,,,
,Bulgaria,2020-06-10 00:00:00,2520,,,,,,141,,,,,,,,,,,,
,Canada,2020-06-10 00:00:00,93215,,,,,,7360,,,,,,,,,,,,
,Germany,2020-06-10 00:00:00,183654,,,,,,8565,,,,,,,,,,,,
,Poland,2020-06-10 00:00:00,24079,,,,,,1077,,,,,,,,,,,,
,Japan,2020-06-10 00:00:00,16879,,,,,,899,,,,,,,,,,,,
,Slovakia,2020-06-10 00:00:00,1522,,,,,,28,,,,,,,,,,,,
,Israel,2020-06-10 00:00:00,17530,,,,,,286,,,,,,,,,,,,
,Saudi Arabia,2020-06-10 00:00:00,89195,,,,,,516,,,,,,,,,,,,
,Philippines,2020-06-10 00:00:00,19978,,,,,,958,,,,,,,,,,,,
,Malaysia,2020-06-10 00:00:00,8017,,,,,,115,,,,,,,,,,,,
,Serbia,2020-06-10 00:00:00,11454,,,,,,243,,,,,,,,,,,,
,Colombia,2020-06-10 00:00:00,30971,,,,,,951,,,,,,,,,,,,
,Croatia,2020-06-10 00:00:00,2247,,,,,,103,,,,,,,,,,,,
,Uruguay,2020-06-10 00:00:00,827,,,,,,22,,,,,,,,,,,,
,India,2020-06-10 00:00:00,226666,,,,,,5539,,,,,,,,,,,,
,Chile,2020-06-10 00:00:00,110065,,,,,,1098,,,,,,,,,,,,
,Romania,2020-06-10 00:00:00,19375,,,,,,1273,,,,,,,,,,,,
,Indonesia,2020-06-10 00:00:00,28440,,,,,,1620,,,,,,,,,,,,
,Australia,2020-06-10 00:00:00,7216,,,,,,102,,,,,,,,,,,,
,Argentina,2020-06-10 00:00:00,18640,,,,,,550,,,,,,,,,,,,
,Austria,2020-06-10 00:00:00,16734,,,,,,669,,,,,,,,,,,,
,Morocco,2020-06-10 00:00:00,7920,,,,,,204,,,,,,,,,,,,
,Ukraine,2020-06-10 00:00:00,24216,,,,,,714,,,,,,,,,,,,
,Singapore,2020-06-10 00:00:00,35836,,,,,,23,,,,,,,,,,,,
,Italy,2020-06-10 00:00:00,233248,,,,,,33495,,,,,,,,,,,,
,Thailand,2020-06-10 00:00:00,3089,,,,,,57,,,,,,,,,,,,
,Hungary,2020-06-10 00:00:00,3890,,,,,,527,,,,,,,,,,,,
,Luxembourg,2020-06-10 00:00:00,4021,,,,,,110,,,,,,,,,,,,
,Brazil,2020-06-10 00:00:00,576700,,,,,,30055,,,,,,,,,,,,
,Egypt,2020-06-10 00:00:00,29414,,,,,,983,,,,,,,,,,,,
,South Africa,2020-06-10 00:00:00,37967,,,,,,699,,,,,,,,,,,,
