Province/State,Country,Target/Date,N,low95N,high95N,R,low95R,high95R,D,low95D,high95D,T,low95T,high95T,M,low95M,high95M,C,low95C,high95C,
,New Zealand,2020-06-04 00:00:00,1604,,,,,,21,,,,,,,,,,,,
,Turkey,2020-06-04 00:00:00,163690,,,,,,4388,,,,,,,,,,,,
,Albania,2020-06-04 00:00:00,1034,,,,,,32,,,,,,,,,,,,
,United Arab Emirates,2020-06-04 00:00:00,32823,,,,,,250,,,,,,,,,,,,
,Slovenia,2020-06-04 00:00:00,1472,,,,,,107,,,,,,,,,,,,
,Estonia,2020-06-04 00:00:00,1834,,,,,,65,,,,,,,,,,,,
,Mexico,2020-06-04 00:00:00,82917,,,,,,8015,,,,,,,,,,,,
,Bulgaria,2020-06-04 00:00:00,2444,,,,,,130,,,,,,,,,,,,
,Canada,2020-06-04 00:00:00,88055,,,,,,6718,,,,,,,,,,,,
,Germany,2020-06-04 00:00:00,181173,,,,,,8366,,,,,,,,,,,,
,Poland,2020-06-04 00:00:00,21968,,,,,,1014,,,,,,,,,,,,
,Japan,2020-06-04 00:00:00,17130,,,,,,843,,,,,,,,,,,,
,Slovakia,2020-06-04 00:00:00,1513,,,,,,28,,,,,,,,,,,,
,Israel,2020-06-04 00:00:00,17590,,,,,,280,,,,,,,,,,,,
,Saudi Arabia,2020-06-04 00:00:00,80709,,,,,,408,,,,,,,,,,,,
,Philippines,2020-06-04 00:00:00,15450,,,,,,886,,,,,,,,,,,,
,Malaysia,2020-06-04 00:00:00,7851,,,,,,115,,,,,,,,,,,,
,Serbia,2020-06-04 00:00:00,11220,,,,,,239,,,,,,,,,,,,
,Colombia,2020-06-04 00:00:00,24747,,,,,,766,,,,,,,,,,,,
,Croatia,2020-06-04 00:00:00,2246,,,,,,100,,,,,,,,,,,,
,Uruguay,2020-06-04 00:00:00,815,,,,,,22,,,,,,,,,,,,
,India,2020-06-04 00:00:00,177536,,,,,,4293,,,,,,,,,,,,
,Chile,2020-06-04 00:00:00,84648,,,,,,783,,,,,,,,,,,,
,Romania,2020-06-04 00:00:00,18357,,,,,,1207,,,,,,,,,,,,
,Indonesia,2020-06-04 00:00:00,24820,,,,,,1417,,,,,,,,,,,,
,Australia,2020-06-04 00:00:00,7166,,,,,,102,,,,,,,,,,,,
,Argentina,2020-06-04 00:00:00,14596,,,,,,477,,,,,,,,,,,,
,Austria,2020-06-04 00:00:00,16569,,,,,,646,,,,,,,,,,,,
,Morocco,2020-06-04 00:00:00,7742,,,,,,200,,,,,,,,,,,,
,Ukraine,2020-06-04 00:00:00,21574,,,,,,636,,,,,,,,,,,,
,Singapore,2020-06-04 00:00:00,33421,,,,,,23,,,,,,,,,,,,
,Italy,2020-06-04 00:00:00,230717,,,,,,32982,,,,,,,,,,,,
,Thailand,2020-06-04 00:00:00,3051,,,,,,56,,,,,,,,,,,,
,Hungary,2020-06-04 00:00:00,3769,,,,,,495,,,,,,,,,,,,
,Luxembourg,2020-06-04 00:00:00,4014,,,,,,109,,,,,,,,,,,,
,Brazil,2020-06-04 00:00:00,428227,,,,,,24238,,,,,,,,,,,,
,Egypt,2020-06-04 00:00:00,20607,,,,,,790,,,,,,,,,,,,
,South Africa,2020-06-04 00:00:00,27207,,,,,,495,,,,,,,,,,,,
