Province/State,Country,Target/Date,N,low95N,high95N,R,low95R,high95R,D,low95D,high95D,T,low95T,high95T,M,low95M,high95M,C,low95C,high95C,
,Argentina,2020-05-24 00:00:00,9419,,,,,,400,,,,,,,,,,,,
,Chile,2020-05-24 00:00:00,54150,,,,,,533,,,,,,,,,,,,
,Estonia,2020-05-24 00:00:00,1806,,,,,,63,,,,,,,,,,,,
,India,2020-05-24 00:00:00,115436,,,,,,3382,,,,,,,,,,,,
,Croatia,2020-05-24 00:00:00,2238,,,,,,96,,,,,,,,,,,,
,Japan,2020-05-24 00:00:00,16813,,,,,,767,,,,,,,,,,,,
,Bulgaria,2020-05-24 00:00:00,2314,,,,,,115,,,,,,,,,,,,
,Egypt,2020-05-24 00:00:00,14083,,,,,,670,,,,,,,,,,,,
,Slovenia,2020-05-24 00:00:00,1470,,,,,,104,,,,,,,,,,,,
,Thailand,2020-05-24 00:00:00,3034,,,,,,56,,,,,,,,,,,,
,Hungary,2020-05-24 00:00:00,3627,,,,,,466,,,,,,,,,,,,
,Turkey,2020-05-24 00:00:00,154898,,,,,,4212,,,,,,,,,,,,
,New Zealand,2020-05-24 00:00:00,1539,,,,,,21,,,,,,,,,,,,
,Mexico,2020-05-24 00:00:00,57461,,,,,,5967,,,,,,,,,,,,
,South Africa,2020-05-24 00:00:00,18234,,,,,,328,,,,,,,,,,,,
,Luxembourg,2020-05-24 00:00:00,4052,,,,,,108,,,,,,,,,,,,
,United Arab Emirates,2020-05-24 00:00:00,26390,,,,,,230,,,,,,,,,,,,
,Indonesia,2020-05-24 00:00:00,19337,,,,,,1236,,,,,,,,,,,,
,Canada,2020-05-24 00:00:00,81119,,,,,,6121,,,,,,,,,,,,
,Romania,2020-05-24 00:00:00,17340,,,,,,1139,,,,,,,,,,,,
,Slovakia,2020-05-24 00:00:00,1501,,,,,,28,,,,,,,,,,,,
,Australia,2020-05-24 00:00:00,7081,,,,,,100,,,,,,,,,,,,
,Germany,2020-05-24 00:00:00,179797,,,,,,8106,,,,,,,,,,,,
,Philippines,2020-05-24 00:00:00,13240,,,,,,840,,,,,,,,,,,,
,Ukraine,2020-05-24 00:00:00,19293,,,,,,554,,,,,,,,,,,,
,Austria,2020-05-24 00:00:00,16396,,,,,,632,,,,,,,,,,,,
,Colombia,2020-05-24 00:00:00,17801,,,,,,624,,,,,,,,,,,,
,Brazil,2020-05-24 00:00:00,287383,,,,,,18524,,,,,,,,,,,,
,Saudi Arabia,2020-05-24 00:00:00,62484,,,,,,336,,,,,,,,,,,,
,Morocco,2020-05-24 00:00:00,7206,,,,,,194,,,,,,,,,,,,
,Israel,2020-05-24 00:00:00,17129,,,,,,277,,,,,,,,,,,,
,Poland,2020-05-24 00:00:00,19609,,,,,,954,,,,,,,,,,,,
,Singapore,2020-05-24 00:00:00,29495,,,,,,22,,,,,,,,,,,,
,Malaysia,2020-05-24 00:00:00,7150,,,,,,113,,,,,,,,,,,,
,Uruguay,2020-05-24 00:00:00,765,,,,,,20,,,,,,,,,,,,
,Italy,2020-05-24 00:00:00,228824,,,,,,32268,,,,,,,,,,,,
,Serbia,2020-05-24 00:00:00,10834,,,,,,234,,,,,,,,,,,,
,Albania,2020-05-24 00:00:00,967,,,,,,31,,,,,,,,,,,,
