Province/State,Country,Target/Date,N,low95N,high95N,R,low95R,high95R,D,low95D,high95D,T,low95T,high95T,M,low95M,high95M,C,low95C,high95C,
,Argentina,2020-06-22 00:00:00,22488,,,,,,423,,,,,,,,,,,,
,Chile,2020-06-22 00:00:00,117978,,,,,,586,,,,,,,,,,,,
,Estonia,2020-06-22 00:00:00,3633,,,,,,65,,,,,,,,,,,,
,India,2020-06-22 00:00:00,348108,,,,,,3690,,,,,,,,,,,,
,Croatia,2020-06-22 00:00:00,4100,,,,,,99,,,,,,,,,,,,
,Japan,2020-06-22 00:00:00,47162,,,,,,803,,,,,,,,,,,,
,Bulgaria,2020-06-22 00:00:00,4725,,,,,,121,,,,,,,,,,,,
,Egypt,2020-06-22 00:00:00,34085,,,,,,709,,,,,,,,,,,,
,Slovenia,2020-06-22 00:00:00,3125,,,,,,108,,,,,,,,,,,,
,Thailand,2020-06-22 00:00:00,6174,,,,,,57,,,,,,,,,,,,
,Hungary,2020-06-22 00:00:00,7038,,,,,,484,,,,,,,,,,,,
,Turkey,2020-06-22 00:00:00,323898,,,,,,4350,,,,,,,,,,,,
,New Zealand,2020-06-22 00:00:00,3874,,,,,,21,,,,,,,,,,,,
,Mexico,2020-06-22 00:00:00,137682,,,,,,6475,,,,,,,,,,,,
,South Africa,2020-06-22 00:00:00,41743,,,,,,361,,,,,,,,,,,,
,Luxembourg,2020-06-22 00:00:00,8180,,,,,,111,,,,,,,,,,,,
,United Arab Emirates,2020-06-22 00:00:00,58888,,,,,,240,,,,,,,,,,,,
,Indonesia,2020-06-22 00:00:00,47464,,,,,,1311,,,,,,,,,,,,
,Canada,2020-06-22 00:00:00,219878,,,,,,6452,,,,,,,,,,,,
,Romania,2020-06-22 00:00:00,32313,,,,,,1185,,,,,,,,,,,,
,Slovakia,2020-06-22 00:00:00,2740,,,,,,28,,,,,,,,,,,,
,Australia,2020-06-22 00:00:00,18648,,,,,,104,,,,,,,,,,,,
,Germany,2020-06-22 00:00:00,359374,,,,,,8390,,,,,,,,,,,,
,Philippines,2020-06-22 00:00:00,29180,,,,,,871,,,,,,,,,,,,
,Ukraine,2020-06-22 00:00:00,38400,,,,,,587,,,,,,,,,,,,
,Austria,2020-06-22 00:00:00,32527,,,,,,652,,,,,,,,,,,,
,Colombia,2020-06-22 00:00:00,40576,,,,,,663,,,,,,,,,,,,
,Brazil,2020-06-22 00:00:00,911511,,,,,,20250,,,,,,,,,,,,
,Saudi Arabia,2020-06-22 00:00:00,150778,,,,,,357,,,,,,,,,,,,
,Morocco,2020-06-22 00:00:00,14908,,,,,,200,,,,,,,,,,,,
,Israel,2020-06-22 00:00:00,37201,,,,,,284,,,,,,,,,,,,
,Poland,2020-06-22 00:00:00,37365,,,,,,995,,,,,,,,,,,,
,Singapore,2020-06-22 00:00:00,74897,,,,,,22,,,,,,,,,,,,
,Malaysia,2020-06-22 00:00:00,15938,,,,,,117,,,,,,,,,,,,
,Uruguay,2020-06-22 00:00:00,1560,,,,,,20,,,,,,,,,,,,
,Italy,2020-06-22 00:00:00,449074,,,,,,33386,,,,,,,,,,,,
,Serbia,2020-06-22 00:00:00,21477,,,,,,242,,,,,,,,,,,,
,Albania,2020-06-22 00:00:00,1899,,,,,,31,,,,,,,,,,,,
