Province/State,Country,Target/Date,N,low95N,high95N,R,low95R,high95R,D,low95D,high95D,T,low95T,high95T,M,low95M,high95M,C,low95C,high95C,
,Morocco,2020-05-31 00:00:00,8099,,,,,,196,,,,,,,,,,,,
,Austria,2020-05-31 00:00:00,17481,,,,,,636,,,,,,,,,,,,
,Poland,2020-05-31 00:00:00,21512,,,,,,976,,,,,,,,,,,,
,United Arab Emirates,2020-05-31 00:00:00,31306,,,,,,238,,,,,,,,,,,,
,Albania,2020-05-31 00:00:00,1053,,,,,,31,,,,,,,,,,,,
,Romania,2020-05-31 00:00:00,18629,,,,,,1162,,,,,,,,,,,,
,Egypt,2020-05-31 00:00:00,17559,,,,,,708,,,,,,,,,,,,
,Uruguay,2020-05-31 00:00:00,850,,,,,,20,,,,,,,,,,,,
,Japan,2020-05-31 00:00:00,18435,,,,,,792,,,,,,,,,,,,
,Israel,2020-05-31 00:00:00,18819,,,,,,279,,,,,,,,,,,,
,Australia,2020-05-31 00:00:00,7598,,,,,,101,,,,,,,,,,,,
,Estonia,2020-05-31 00:00:00,1920,,,,,,64,,,,,,,,,,,,
,Singapore,2020-05-31 00:00:00,33620,,,,,,22,,,,,,,,,,,,
,South Africa,2020-05-31 00:00:00,22608,,,,,,376,,,,,,,,,,,,
,Philippines,2020-05-31 00:00:00,15181,,,,,,853,,,,,,,,,,,,
,Colombia,2020-05-31 00:00:00,21542,,,,,,670,,,,,,,,,,,,
,Turkey,2020-05-31 00:00:00,171648,,,,,,4276,,,,,,,,,,,,
,Hungary,2020-05-31 00:00:00,3955,,,,,,476,,,,,,,,,,,,
,Slovenia,2020-05-31 00:00:00,1547,,,,,,105,,,,,,,,,,,,
,Croatia,2020-05-31 00:00:00,2342,,,,,,97,,,,,,,,,,,,
,Canada,2020-05-31 00:00:00,88873,,,,,,6333,,,,,,,,,,,,
,Argentina,2020-05-31 00:00:00,11755,,,,,,425,,,,,,,,,,,,
,Mexico,2020-05-31 00:00:00,70819,,,,,,6662,,,,,,,,,,,,
,Indonesia,2020-05-31 00:00:00,23209,,,,,,1301,,,,,,,,,,,,
,Germany,2020-05-31 00:00:00,191074,,,,,,8219,,,,,,,,,,,,
,Serbia,2020-05-31 00:00:00,11493,,,,,,236,,,,,,,,,,,,
,Brazil,2020-05-31 00:00:00,357791,,,,,,20564,,,,,,,,,,,,
,Saudi Arabia,2020-05-31 00:00:00,75032,,,,,,359,,,,,,,,,,,,
,Ukraine,2020-05-31 00:00:00,21012,,,,,,584,,,,,,,,,,,,
,Italy,2020-05-31 00:00:00,245317,,,,,,32611,,,,,,,,,,,,
,Slovakia,2020-05-31 00:00:00,1576,,,,,,28,,,,,,,,,,,,
,Bulgaria,2020-05-31 00:00:00,2553,,,,,,121,,,,,,,,,,,,
,Chile,2020-05-31 00:00:00,68661,,,,,,612,,,,,,,,,,,,
,India,2020-05-31 00:00:00,143919,,,,,,3672,,,,,,,,,,,,
,Malaysia,2020-05-31 00:00:00,8031,,,,,,114,,,,,,,,,,,,
,Thailand,2020-05-31 00:00:00,3257,,,,,,56,,,,,,,,,,,,
,Luxembourg,2020-05-31 00:00:00,4389,,,,,,109,,,,,,,,,,,,
,New Zealand,2020-05-31 00:00:00,1671,,,,,,21,,,,,,,,,,,,
