Province/State,Country,Target/Date,N,low95N,high95N,R,low95R,high95R,D,low95D,high95D,T,low95T,high95T,M,low95M,high95M,C,low95C,high95C,
,Slovakia,2020-06-11 00:00:00,1531,,,,,,28,,,,,,,,,,,,
,Colombia,2020-06-11 00:00:00,32602,,,,,,991,,,,,,,,,,,,
,Saudi Arabia,2020-06-11 00:00:00,90611,,,,,,541,,,,,,,,,,,,
,Israel,2020-06-11 00:00:00,17605,,,,,,287,,,,,,,,,,,,
,Turkey,2020-06-11 00:00:00,169782,,,,,,4577,,,,,,,,,,,,
,Germany,2020-06-11 00:00:00,183906,,,,,,8586,,,,,,,,,,,,
,Romania,2020-06-11 00:00:00,19577,,,,,,1282,,,,,,,,,,,,
,United Arab Emirates,2020-06-11 00:00:00,36501,,,,,,267,,,,,,,,,,,,
,Malaysia,2020-06-11 00:00:00,8162,,,,,,115,,,,,,,,,,,,
,Albania,2020-06-11 00:00:00,1178,,,,,,33,,,,,,,,,,,,
,Bulgaria,2020-06-11 00:00:00,2537,,,,,,142,,,,,,,,,,,,
,Singapore,2020-06-11 00:00:00,36572,,,,,,23,,,,,,,,,,,,
,Luxembourg,2020-06-11 00:00:00,4026,,,,,,110,,,,,,,,,,,,
,Thailand,2020-06-11 00:00:00,3112,,,,,,57,,,,,,,,,,,,
,India,2020-06-11 00:00:00,255795,,,,,,5769,,,,,,,,,,,,
,Canada,2020-06-11 00:00:00,94763,,,,,,7458,,,,,,,,,,,,
,Morocco,2020-06-11 00:00:00,8161,,,,,,205,,,,,,,,,,,,
,Italy,2020-06-11 00:00:00,233609,,,,,,33556,,,,,,,,,,,,
,Chile,2020-06-11 00:00:00,116252,,,,,,1166,,,,,,,,,,,,
,Brazil,2020-06-11 00:00:00,614809,,,,,,31047,,,,,,,,,,,,
,Poland,2020-06-11 00:00:00,24408,,,,,,1087,,,,,,,,,,,,
,Japan,2020-06-11 00:00:00,17361,,,,,,904,,,,,,,,,,,,
,Egypt,2020-06-11 00:00:00,29919,,,,,,1024,,,,,,,,,,,,
,Mexico,2020-06-11 00:00:00,104827,,,,,,10821,,,,,,,,,,,,
,Croatia,2020-06-11 00:00:00,2247,,,,,,103,,,,,,,,,,,,
,Philippines,2020-06-11 00:00:00,20177,,,,,,965,,,,,,,,,,,,
,New Zealand,2020-06-11 00:00:00,1538,,,,,,22,,,,,,,,,,,,
,Argentina,2020-06-11 00:00:00,19899,,,,,,565,,,,,,,,,,,,
,Ukraine,2020-06-11 00:00:00,24938,,,,,,726,,,,,,,,,,,,
,Serbia,2020-06-11 00:00:00,11498,,,,,,244,,,,,,,,,,,,
,Uruguay,2020-06-11 00:00:00,832,,,,,,22,,,,,,,,,,,,
,Hungary,2020-06-11 00:00:00,3910,,,,,,530,,,,,,,,,,,,
,Austria,2020-06-11 00:00:00,16778,,,,,,669,,,,,,,,,,,,
,Slovenia,2020-06-11 00:00:00,1478,,,,,,108,,,,,,,,,,,,
,South Africa,2020-06-11 00:00:00,39309,,,,,,738,,,,,,,,,,,,
,Estonia,2020-06-11 00:00:00,1877,,,,,,68,,,,,,,,,,,,
,Australia,2020-06-11 00:00:00,7268,,,,,,102,,,,,,,,,,,,
,Indonesia,2020-06-11 00:00:00,29292,,,,,,1652,,,,,,,,,,,,
