Province/State,Country,Target/Date,N,low95N,high95N,R,low95R,high95R,D,low95D,high95D,T,low95T,high95T,M,low95M,high95M,C,low95C,high95C,
,Slovakia,2020-06-17 00:00:00,1530,,,,,,28,,,,,,,,,,,,
,Colombia,2020-06-17 00:00:00,44296,,,,,,1310,,,,,,,,,,,,
,Saudi Arabia,2020-06-17 00:00:00,106162,,,,,,729,,,,,,,,,,,,
,Israel,2020-06-17 00:00:00,18596,,,,,,296,,,,,,,,,,,,
,Turkey,2020-06-17 00:00:00,176829,,,,,,4699,,,,,,,,,,,,
,Germany,2020-06-17 00:00:00,185973,,,,,,8706,,,,,,,,,,,,
,Romania,2020-06-17 00:00:00,20554,,,,,,1337,,,,,,,,,,,,
,United Arab Emirates,2020-06-17 00:00:00,39533,,,,,,278,,,,,,,,,,,,
,Malaysia,2020-06-17 00:00:00,8536,,,,,,116,,,,,,,,,,,,
,Albania,2020-06-17 00:00:00,1277,,,,,,33,,,,,,,,,,,,
,Bulgaria,2020-06-17 00:00:00,2794,,,,,,162,,,,,,,,,,,,
,Singapore,2020-06-17 00:00:00,39801,,,,,,24,,,,,,,,,,,,
,Luxembourg,2020-06-17 00:00:00,4042,,,,,,110,,,,,,,,,,,,
,Thailand,2020-06-17 00:00:00,3117,,,,,,58,,,,,,,,,,,,
,India,2020-06-17 00:00:00,313421,,,,,,7314,,,,,,,,,,,,
,Canada,2020-06-17 00:00:00,98610,,,,,,7922,,,,,,,,,,,,
,Morocco,2020-06-17 00:00:00,8767,,,,,,208,,,,,,,,,,,,
,Italy,2020-06-17 00:00:00,235277,,,,,,33981,,,,,,,,,,,,
,Chile,2020-06-17 00:00:00,151144,,,,,,1944,,,,,,,,,,,,
,Brazil,2020-06-17 00:00:00,785095,,,,,,37202,,,,,,,,,,,,
,Poland,2020-06-17 00:00:00,26809,,,,,,1167,,,,,,,,,,,,
,Japan,2020-06-17 00:00:00,17061,,,,,,921,,,,,,,,,,,,
,Egypt,2020-06-17 00:00:00,39321,,,,,,1253,,,,,,,,,,,,
,Mexico,2020-06-17 00:00:00,131970,,,,,,14083,,,,,,,,,,,,
,Croatia,2020-06-17 00:00:00,2248,,,,,,104,,,,,,,,,,,,
,Philippines,2020-06-17 00:00:00,23963,,,,,,1006,,,,,,,,,,,,
,New Zealand,2020-06-17 00:00:00,1504,,,,,,22,,,,,,,,,,,,
,Argentina,2020-06-17 00:00:00,27037,,,,,,682,,,,,,,,,,,,
,Ukraine,2020-06-17 00:00:00,28128,,,,,,802,,,,,,,,,,,,
,Serbia,2020-06-17 00:00:00,11859,,,,,,249,,,,,,,,,,,,
,Uruguay,2020-06-17 00:00:00,846,,,,,,23,,,,,,,,,,,,
,Hungary,2020-06-17 00:00:00,4006,,,,,,547,,,,,,,,,,,,
,Austria,2020-06-17 00:00:00,16941,,,,,,672,,,,,,,,,,,,
,Slovenia,2020-06-17 00:00:00,1485,,,,,,109,,,,,,,,,,,,
,South Africa,2020-06-17 00:00:00,58126,,,,,,1052,,,,,,,,,,,,
,Estonia,2020-06-17 00:00:00,1938,,,,,,69,,,,,,,,,,,,
,Australia,2020-06-17 00:00:00,7305,,,,,,102,,,,,,,,,,,,
,Indonesia,2020-06-17 00:00:00,33644,,,,,,1864,,,,,,,,,,,,
