Province/State,Country,Target/Date,N,low95N,high95N,R,low95R,high95R,D,low95D,high95D,T,low95T,high95T,M,low95M,high95M,C,low95C,high95C,
,Israel,2020-05-08 00:00:00,16360,,,,,,233,,,,,,,,,,,,
,Argentina,2020-05-08 00:00:00,4919,,,,,,251,,,,,,,,,,,,
,Brazil,2020-05-08 00:00:00,111633,,,,,,7369,,,,,,,,,,,,
,Germany,2020-05-08 00:00:00,166284,,,,,,6949,,,,,,,,,,,,
,Chile,2020-05-08 00:00:00,20753,,,,,,261,,,,,,,,,,,,
,Romania,2020-05-08 00:00:00,13384,,,,,,805,,,,,,,,,,,,
,Serbia,2020-05-08 00:00:00,9502,,,,,,193,,,,,,,,,,,,
,Australia,2020-05-08 00:00:00,6852,,,,,,95,,,,,,,,,,,,
,India,2020-05-08 00:00:00,47947,,,,,,1501,,,,,,,,,,,,
,Bulgaria,2020-05-08 00:00:00,1657,,,,,,75,,,,,,,,,,,,
,Philippines,2020-05-08 00:00:00,9648,,,,,,618,,,,,,,,,,,,
,United Arab Emirates,2020-05-08 00:00:00,14675,,,,,,132,,,,,,,,,,,,
,Hungary,2020-05-08 00:00:00,3009,,,,,,347,,,,,,,,,,,,
,Turkey,2020-05-08 00:00:00,128823,,,,,,3430,,,,,,,,,,,,
,Colombia,2020-05-08 00:00:00,8120,,,,,,352,,,,,,,,,,,,
,Estonia,2020-05-08 00:00:00,1706,,,,,,54,,,,,,,,,,,,
,Mexico,2020-05-08 00:00:00,25188,,,,,,2281,,,,,,,,,,,,
,Morocco,2020-05-08 00:00:00,5096,,,,,,177,,,,,,,,,,,,
,Canada,2020-05-08 00:00:00,61329,,,,,,3937,,,,,,,,,,,,
,Austria,2020-05-08 00:00:00,15633,,,,,,600,,,,,,,,,,,,
,Croatia,2020-05-08 00:00:00,2103,,,,,,79,,,,,,,,,,,,
,South Africa,2020-05-08 00:00:00,7218,,,,,,135,,,,,,,,,,,,
,Slovakia,2020-05-08 00:00:00,1418,,,,,,24,,,,,,,,,,,,
,Malaysia,2020-05-08 00:00:00,6367,,,,,,104,,,,,,,,,,,,
,Luxembourg,2020-05-08 00:00:00,3839,,,,,,95,,,,,,,,,,,,
,Indonesia,2020-05-08 00:00:00,11838,,,,,,852,,,,,,,,,,,,
,New Zealand,2020-05-08 00:00:00,1489,,,,,,20,,,,,,,,,,,,
,Slovenia,2020-05-08 00:00:00,1443,,,,,,96,,,,,,,,,,,,
,Uruguay,2020-05-08 00:00:00,666,,,,,,17,,,,,,,,,,,,
,Saudi Arabia,2020-05-08 00:00:00,28665,,,,,,188,,,,,,,,,,,,
,Japan,2020-05-08 00:00:00,15061,,,,,,510,,,,,,,,,,,,
,Albania,2020-05-08 00:00:00,807,,,,,,31,,,,,,,,,,,,
,Singapore,2020-05-08 00:00:00,18979,,,,,,17,,,,,,,,,,,,
,Ukraine,2020-05-08 00:00:00,12142,,,,,,297,,,,,,,,,,,,
,Poland,2020-05-08 00:00:00,13930,,,,,,690,,,,,,,,,,,,
,Thailand,2020-05-08 00:00:00,2991,,,,,,54,,,,,,,,,,,,
,Egypt,2020-05-08 00:00:00,7010,,,,,,435,,,,,,,,,,,,
,Italy,2020-05-08 00:00:00,211502,,,,,,28995,,,,,,,,,,,,
