Province/State,Country,Target/Date,N,low95N,high95N,R,low95R,high95R,D,low95D,high95D,T,low95T,high95T,M,low95M,high95M,C,low95C,high95C,
,Israel,2020-05-11 00:00:00,16380,,,,,,240,,,,,,,,,,,,
,Argentina,2020-05-11 00:00:00,5383,,,,,,278,,,,,,,,,,,,
,Brazil,2020-05-11 00:00:00,137780,,,,,,8969,,,,,,,,,,,,
,Germany,2020-05-11 00:00:00,168966,,,,,,7289,,,,,,,,,,,,
,Chile,2020-05-11 00:00:00,24690,,,,,,284,,,,,,,,,,,,
,Romania,2020-05-11 00:00:00,14332,,,,,,879,,,,,,,,,,,,
,Serbia,2020-05-11 00:00:00,9818,,,,,,205,,,,,,,,,,,,
,Australia,2020-05-11 00:00:00,6926,,,,,,96,,,,,,,,,,,,
,India,2020-05-11 00:00:00,58786,,,,,,1837,,,,,,,,,,,,
,Bulgaria,2020-05-11 00:00:00,1802,,,,,,83,,,,,,,,,,,,
,Philippines,2020-05-11 00:00:00,10138,,,,,,667,,,,,,,,,,,,
,United Arab Emirates,2020-05-11 00:00:00,16188,,,,,,160,,,,,,,,,,,,
,Hungary,2020-05-11 00:00:00,3128,,,,,,378,,,,,,,,,,,,
,Turkey,2020-05-11 00:00:00,132790,,,,,,3605,,,,,,,,,,,,
,Colombia,2020-05-11 00:00:00,9444,,,,,,402,,,,,,,,,,,,
,Estonia,2020-05-11 00:00:00,1719,,,,,,56,,,,,,,,,,,,
,Mexico,2020-05-11 00:00:00,29932,,,,,,2826,,,,,,,,,,,,
,Morocco,2020-05-11 00:00:00,5505,,,,,,183,,,,,,,,,,,,
,Canada,2020-05-11 00:00:00,66342,,,,,,4442,,,,,,,,,,,,
,Austria,2020-05-11 00:00:00,15736,,,,,,608,,,,,,,,,,,,
,Croatia,2020-05-11 00:00:00,2134,,,,,,84,,,,,,,,,,,,
,South Africa,2020-05-11 00:00:00,8344,,,,,,160,,,,,,,,,,,,
,Slovakia,2020-05-11 00:00:00,1437,,,,,,25,,,,,,,,,,,,
,Malaysia,2020-05-11 00:00:00,6471,,,,,,106,,,,,,,,,,,,
,Luxembourg,2020-05-11 00:00:00,3858,,,,,,98,,,,,,,,,,,,
,Indonesia,2020-05-11 00:00:00,12737,,,,,,910,,,,,,,,,,,,
,New Zealand,2020-05-11 00:00:00,1491,,,,,,20,,,,,,,,,,,,
,Slovenia,2020-05-11 00:00:00,1449,,,,,,99,,,,,,,,,,,,
,Uruguay,2020-05-11 00:00:00,682,,,,,,17,,,,,,,,,,,,
,Saudi Arabia,2020-05-11 00:00:00,33536,,,,,,214,,,,,,,,,,,,
,Japan,2020-05-11 00:00:00,15600,,,,,,570,,,,,,,,,,,,
,Albania,2020-05-11 00:00:00,834,,,,,,31,,,,,,,,,,,,
,Singapore,2020-05-11 00:00:00,20852,,,,,,19,,,,,,,,,,,,
,Ukraine,2020-05-11 00:00:00,13483,,,,,,337,,,,,,,,,,,,
,Poland,2020-05-11 00:00:00,14890,,,,,,744,,,,,,,,,,,,
,Thailand,2020-05-11 00:00:00,2996,,,,,,54,,,,,,,,,,,,
,Egypt,2020-05-11 00:00:00,7927,,,,,,476,,,,,,,,,,,,
,Italy,2020-05-11 00:00:00,215360,,,,,,29794,,,,,,,,,,,,
