Province/State,Country,Target/Date,N,low95N,high95N,R,low95R,high95R,D,low95D,high95D,T,low95T,high95T,M,low95M,high95M,C,low95C,high95C,
,Israel,2020-05-20 00:00:00,16759,,,,,,268,,,,,,,,,,,,
,Argentina,2020-05-20 00:00:00,7743,,,,,,359,,,,,,,,,,,,
,Brazil,2020-05-20 00:00:00,227598,,,,,,15147,,,,,,,,,,,,
,Germany,2020-05-20 00:00:00,176030,,,,,,7925,,,,,,,,,,,,
,Chile,2020-05-20 00:00:00,41283,,,,,,409,,,,,,,,,,,,
,Romania,2020-05-20 00:00:00,16704,,,,,,1080,,,,,,,,,,,,
,Serbia,2020-05-20 00:00:00,10541,,,,,,226,,,,,,,,,,,,
,Australia,2020-05-20 00:00:00,7037,,,,,,98,,,,,,,,,,,,
,India,2020-05-20 00:00:00,92512,,,,,,2834,,,,,,,,,,,,
,Bulgaria,2020-05-20 00:00:00,2172,,,,,,103,,,,,,,,,,,,
,Philippines,2020-05-20 00:00:00,12476,,,,,,806,,,,,,,,,,,,
,United Arab Emirates,2020-05-20 00:00:00,22619,,,,,,213,,,,,,,,,,,,
,Hungary,2020-05-20 00:00:00,3470,,,,,,444,,,,,,,,,,,,
,Turkey,2020-05-20 00:00:00,149094,,,,,,4070,,,,,,,,,,,,
,Colombia,2020-05-20 00:00:00,14913,,,,,,551,,,,,,,,,,,,
,Estonia,2020-05-20 00:00:00,1779,,,,,,62,,,,,,,,,,,,
,Mexico,2020-05-20 00:00:00,47085,,,,,,4837,,,,,,,,,,,,
,Morocco,2020-05-20 00:00:00,6839,,,,,,190,,,,,,,,,,,,
,Canada,2020-05-20 00:00:00,76576,,,,,,5729,,,,,,,,,,,,
,Austria,2020-05-20 00:00:00,16289,,,,,,627,,,,,,,,,,,,
,Croatia,2020-05-20 00:00:00,2233,,,,,,94,,,,,,,,,,,,
,South Africa,2020-05-20 00:00:00,14541,,,,,,252,,,,,,,,,,,,
,Slovakia,2020-05-20 00:00:00,1497,,,,,,27,,,,,,,,,,,,
,Malaysia,2020-05-20 00:00:00,6960,,,,,,112,,,,,,,,,,,,
,Luxembourg,2020-05-20 00:00:00,3951,,,,,,104,,,,,,,,,,,,
,Indonesia,2020-05-20 00:00:00,17160,,,,,,1095,,,,,,,,,,,,
,New Zealand,2020-05-20 00:00:00,1506,,,,,,21,,,,,,,,,,,,
,Slovenia,2020-05-20 00:00:00,1473,,,,,,103,,,,,,,,,,,,
,Uruguay,2020-05-20 00:00:00,736,,,,,,19,,,,,,,,,,,,
,Saudi Arabia,2020-05-20 00:00:00,51743,,,,,,297,,,,,,,,,,,,
,Japan,2020-05-20 00:00:00,16241,,,,,,718,,,,,,,,,,,,
,Albania,2020-05-20 00:00:00,930,,,,,,31,,,,,,,,,,,,
,Singapore,2020-05-20 00:00:00,27496,,,,,,21,,,,,,,,,,,,
,Ukraine,2020-05-20 00:00:00,17725,,,,,,486,,,,,,,,,,,,
,Poland,2020-05-20 00:00:00,18272,,,,,,904,,,,,,,,,,,,
,Thailand,2020-05-20 00:00:00,3048,,,,,,56,,,,,,,,,,,,
,Egypt,2020-05-20 00:00:00,11888,,,,,,601,,,,,,,,,,,,
,Italy,2020-05-20 00:00:00,224832,,,,,,31635,,,,,,,,,,,,
