Province/State,Country,Target/Date,N,low95N,high95N,R,low95R,high95R,D,low95D,high95D,T,low95T,high95T,M,low95M,high95M,C,low95C,high95C,
,Israel,2020-05-07 00:00:00,16551,,,,,,230,,,,,,,,,,,,
,Argentina,2020-05-07 00:00:00,4882,,,,,,241,,,,,,,,,,,,
,Brazil,2020-05-07 00:00:00,106754,,,,,,6937,,,,,,,,,,,,
,Germany,2020-05-07 00:00:00,168592,,,,,,6844,,,,,,,,,,,,
,Chile,2020-05-07 00:00:00,20035,,,,,,252,,,,,,,,,,,,
,Romania,2020-05-07 00:00:00,13189,,,,,,781,,,,,,,,,,,,
,Serbia,2020-05-07 00:00:00,9424,,,,,,189,,,,,,,,,,,,
,Australia,2020-05-07 00:00:00,6913,,,,,,94,,,,,,,,,,,,
,India,2020-05-07 00:00:00,45185,,,,,,1395,,,,,,,,,,,,
,Bulgaria,2020-05-07 00:00:00,1657,,,,,,72,,,,,,,,,,,,
,Philippines,2020-05-07 00:00:00,9358,,,,,,603,,,,,,,,,,,,
,United Arab Emirates,2020-05-07 00:00:00,14451,,,,,,124,,,,,,,,,,,,
,Hungary,2020-05-07 00:00:00,3013,,,,,,337,,,,,,,,,,,,
,Turkey,2020-05-07 00:00:00,128593,,,,,,3361,,,,,,,,,,,,
,Colombia,2020-05-07 00:00:00,7840,,,,,,334,,,,,,,,,,,,
,Estonia,2020-05-07 00:00:00,1709,,,,,,53,,,,,,,,,,,,
,Mexico,2020-05-07 00:00:00,24153,,,,,,2140,,,,,,,,,,,,
,Morocco,2020-05-07 00:00:00,4920,,,,,,174,,,,,,,,,,,,
,Canada,2020-05-07 00:00:00,60519,,,,,,3761,,,,,,,,,,,,
,Austria,2020-05-07 00:00:00,15615,,,,,,596,,,,,,,,,,,,
,Croatia,2020-05-07 00:00:00,2098,,,,,,77,,,,,,,,,,,,
,South Africa,2020-05-07 00:00:00,6863,,,,,,126,,,,,,,,,,,,
,Slovakia,2020-05-07 00:00:00,1415,,,,,,24,,,,,,,,,,,,
,Malaysia,2020-05-07 00:00:00,6365,,,,,,104,,,,,,,,,,,,
,Luxembourg,2020-05-07 00:00:00,3914,,,,,,93,,,,,,,,,,,,
,Indonesia,2020-05-07 00:00:00,11453,,,,,,835,,,,,,,,,,,,
,New Zealand,2020-05-07 00:00:00,1508,,,,,,20,,,,,,,,,,,,
,Slovenia,2020-05-07 00:00:00,1441,,,,,,94,,,,,,,,,,,,
,Uruguay,2020-05-07 00:00:00,680,,,,,,17,,,,,,,,,,,,
,Saudi Arabia,2020-05-07 00:00:00,27583,,,,,,180,,,,,,,,,,,,
,Japan,2020-05-07 00:00:00,15357,,,,,,490,,,,,,,,,,,,
,Albania,2020-05-07 00:00:00,803,,,,,,31,,,,,,,,,,,,
,Singapore,2020-05-07 00:00:00,18460,,,,,,17,,,,,,,,,,,,
,Ukraine,2020-05-07 00:00:00,11914,,,,,,286,,,,,,,,,,,,
,Poland,2020-05-07 00:00:00,13793,,,,,,676,,,,,,,,,,,,
,Thailand,2020-05-07 00:00:00,2985,,,,,,54,,,,,,,,,,,,
,Egypt,2020-05-07 00:00:00,6609,,,,,,422,,,,,,,,,,,,
,Italy,2020-05-07 00:00:00,213401,,,,,,28725,,,,,,,,,,,,
